79979329,662
79980529,662
79981729,66279972129,658
79973329,658
79974529,659
79975729,660
79976929,660
79978129,661
79979329,662
79980529,662
79981729,662
79982929,662
79984129,661
79985329,661
79986529,660
79987729,661
79988929,662
79990129,663
79991329,664
79992529,665
79993729,665
79994929,665
79996129,665
79997329,664
79998529,665
79999729,665
80000929,665
80002129,664
80003329,663
80004529,663
80005729,663
80006929,663
80008129,663
80009329,662
80010529,661
80011729,659
80012929,658
80014129,658
80015329,658
80016529,658
80017729,657
80018929,657
80020129,656
80021329,655
80022529,655
80023729,656
80024929,656
80026129,655
80027329,656
80028529,655
80029729,655
80030929,653
80032129,652
80033329,651
80034529,650
80035729,649
80036929,648
80038129,646
80039329,645
80040529,643
80041729,641
80042929,641
80044129,640
80045329,640
80046529,639
80047729,639
80048929,638
80050129,638
80051329,639
80052529,639
80053729,640
80054929,640
80056129,640
80057329,641
80058529,641
80059729,642
80060929,642
80062129,642
80063329,642
80064529,642
80065729,642
80066929,642
80068129,643
80069329,642
80070529,641
80071729,642
80072929,642
80074129,641
80075329,640
80076529,640
80077729,639
80078929,639
80080129,639
80081329,639
80082529,639
80083729,640
80084929,639
80086129,639
80087329,639
80088529,640
80089729,640
80090929,640
80092129,640
80093329,640
80094529,641
80095729,641
80096929,641
80098129,641
80099329,641
80100529,641
80101729,641
80102929,642
80104129,642
80105329,642
80106529,642
80107729,642
80108929,643
80110129,643
80111329,644
80112529,644
80113729,644
80114929,644
80116129,644
80117329,644
80118529,644
80119729,644
80120929,644
80122129,644
80123329,644
80124529,644
80125729,644
80126929,644
80128129,645
80129329,645
80130529,645
80131729,645
80132929,646
80134129,646
80135329,647
80136529,647
80137729,647
80138929,647
80140129,647
80141329,647
80142529,647
80143729,647
80144929,647
80146129,647
80147329,647
80148529,647
80149729,647
80150929,647
80152129,647
80153329,647
80154529,647
80155729,647
80156929,647
80158129,647
80159329,648
80160529,648
80161729,649
80162929,649
80164129,649
80165329,649
80166529,649
80167729,649
80168929,650
80170129,650
80171329,650
80172529,651
80173729,651
80174929,652
80176129,652
80177329,652
80178529,652
80179729,651
80180929,651
80182129,651
80183329,651
80184529,651
80185729,651
80186929,651
80188129,652
80189329,652
80190529,652
80191729,652
80192929,652
80194129,652
80195329,651
80196529,651
80197729,651
80198929,651
80200129,651
80201329,652
80202529,652
80203729,652
80204929,652
80206129,652
80207329,651
80208529,652
80209729,652
80210929,652
80212129,652
80213329,653
80214529,654
80215729,654
80216929,654
80218129,654
80219329,654
80220529,654
80221729,654
80222929,654
80224129,653
80225329,653
80226529,653
80227729,653
80228929,652
80230129,651
80231329,651
80232529,650
80233729,649
80234929,649
80236129,649
80237329,648
80238529,648
80239729,647
80240929,647
80242129,647
80243329,647
80244529,647
80245729,647
80246929,646
80248129,646
80249329,646
80250529,646
80251729,645
80252929,645
80254129,644
80255329,645
80256529,645
80257729,644
80258929,644
80260129,645
80261329,644
80262529,645
80263729,645
80264929,645
80266129,645
80267329,646
80268529,646
80269729,646
80270929,647
80272129,647
80273329,647
80274529,648
80275729,647
80276929,648
80278129,648
80279329,650
80280529,650
80281729,651
80282929,652
80284129,652
80285329,653
80286529,653
80287729,655
80288929,655
80290129,655
80291329,656
80292529,656
80293729,656
80294929,657
80296129,657
80297329,657
80298529,657
80299729,657
80300929,658
80302129,657
80303329,657
80304529,656
80305729,655
80306929,655
80308129,655
80309329,654
80310529,654
80311729,652
80312929,651
80314129,651
80315329,650
80316529,649
80317729,649
80318929,649
80320129,648
80321329,647
80322529,647
80323729,647
80324929,647
80326129,647
80327329,647
80328529,646
80329729,646
80330929,646
80332129,646
80333329,646
80334529,645
80335729,645
80336929,644
80338129,644
80339329,644
80340529,644
80341729,644
80342929,644
80344129,643
80345329,643
80346529,643
80347729,643
80348929,642
80350129,642
80351329,642
80352529,642
80353729,642
80354929,641
80356129,640
80357329,640
80358529,639
80359729,639
80360929,639
80362129,638
80363329,639
80364529,639
80365729,639
80366929,638
80368129,638
80369329,638
80370529,638
80371729,638
80372929,638
80374129,637
80375329,637
80376529,637
80377729,638
80378929,638
80380129,637
80381329,637
80382529,637
80383729,637
80384929,636
80386129,636
80387329,636
80388529,636
80389729,636
80390929,636
80392129,636
80393329,636
80394529,636
80395729,636
80396929,636
80398129,636
80399329,636
80400529,637
80401729,637
80402929,637
80404129,637
80405329,638
80406529,638
80407729,638
80408929,639
80410129,640
80411329,640
80412529,640
80413729,639
80414929,640
80416129,640
80417329,640
80418529,640
80419729,640
80420929,641
80422129,641
80423329,641
80424529,641
80425729,641
80426929,642
80428129,643
80429329,643
80430529,643
80431729,643
80432929,644
80434129,644
80435329,645
80436529,646
80437729,646
80438929,646
80440129,647
80441329,649
80442529,649
80443729,651
80444929,651
80446129,652
80447329,653
80448529,654
80449729,655
80450929,655
80452129,656
80453329,657
80454529,658
80455729,659
80456929,660
80458129,661
80459329,662
80460529,663
80461729,663
80462929,664
80464129,665
80465329,666
80466529,666
80467729,666
80468929,666
80470129,667
80471329,668
80472529,668
80473729,669
80474929,668
80476129,668
80477329,668
80478529,667
80479729,667
80480929,668
80482129,668
80483329,669
80484529,669
80485729,670
80486929,670
80488129,670
80489329,670
80490529,670
80491729,669
80492929,670
80494129,671
80495329,672
80496529,673
80497729,674
80498929,674
80500129,674
80501329,674
80502529,674
80503729,674
80504929,674
80506129,674
80507329,674
80508529,675
80509729,675
80510929,675
80512129,675
80513329,675
80514529,675
80515729,675
80516929,675
80518129,675
80519329,675
80520529,675
80521729,675
80522929,675
80524129,675
80525329,675
80526529,675
80527729,675
80528929,676
80530129,676
80531329,676
80532529,676
80533729,676
80534929,677
80536129,677
80537329,678
80538529,679
80539729,680
80540929,680
80542129,681
80543329,681
80544529,681
80545729,682
80546929,682
80548129,682
80549329,682
80550529,682
80551729,682
80552929,682
80554129,682
80555329,682
80556529,682
80557729,682
80558929,682
80560129,681
80561329,681
80562529,680
80563729,679
80564929,679
80566129,679
80567329,679
80568529,678
80569729,678
80570929,677
80572129,677
80573329,677
80574529,677
80575729,677
80576929,677
80578129,677
80579329,677
80580529,677
80581729,677
80582929,677
80584129,677
80585329,677
80586529,677
80587729,677
80588929,677
80590129,677
80591329,678
80592529,679
80593729,679
80594929,680
80596129,680
80597329,679
80598529,679
80599729,678
80600929,678
80602129,679
80603329,679
80604529,679
80605729,679
80606929,680
80608129,680
80609329,680
80610529,679
80611729,678
80612929,678
80614129,678
80615329,678
80616529,677
80617729,677
80618929,677
80620129,676
80621329,676
80622529,677
80623729,678
80624929,678
80626129,678
80627329,678
80628529,678
80629729,677
80630929,677
80632129,677
80633329,677
80634529,676
80635729,675
80636929,675
80638129,674
80639329,673
80640529,673
80641729,672
80642929,672
80644129,672
80645329,673
80646529,673
80647729,673
80648929,673
80650129,672
80651329,671
80652529,670
80653729,670
80654929,669
80656129,668
80657329,668
80658529,669
80659729,670
80660929,671
80662129,671
80663329,671
80664529,670
80665729,672
80666929,672
80668129,671
80669329,671
80670529,671
80671729,671
80672929,670
80674129,670
80675329,670
80676529,669
80677729,669
80678929,669
80680129,670
80681329,670
80682529,670
80683729,670
80684929,671
80686129,671
80687329,671
80688529,670
80689729,669
80690929,669
80692129,669
80693329,670
80694529,669
80695729,669
80696929,668
80698129,668
80699329,666
80700529,665
80701729,664
80702929,663
80704129,663
80705329,662
80706529,661
80707729,661
80708929,661
80710129,660
80711329,660
80712529,660
80713729,660
80714929,660
80716129,659
80717329,658
80718529,659
80719729,658
80720929,658
80722129,658
80723329,658
80724529,657
80725729,657
80726929,657
80728129,657
80729329,657
80730529,658
80731729,658
80732929,659
80734129,660
80735329,660
80736529,661
80737729,661
80738929,660
80740129,661
80741329,662
80742529,663
80743729,664
80744929,664
80746129,665
80747329,666
80748529,667
80749729,667
80750929,668
80752129,669
80753329,670
80754529,670
80755729,670
80756929,670
80758129,671
80759329,670
80760529,670
80761729,670
80762929,670
80764129,670
80765329,669
80766529,669
80767729,668
80768929,667
80770129,667
80771329,667
80772529,667
80773729,666
80774929,666
80776129,666
80777329,665
80778529,665
80779729,664
80780929,662
80782129,662
80783329,662
80784529,662
80785729,662
80786929,663
80788129,662
80789329,662
80790529,662
80791729,662
80792929,663
80794129,663
80795329,663
80796529,663
80797729,663
80798929,664
80800129,664
80801329,664
80802529,664
80803729,664
80804929,665
80806129,666
80807329,667
80808529,670
80809729,670
80810929,670
80812129,671
80813329,671
80814529,672
80815729,673
80816929,675
80818129,677
80819329,678
80820529,678
80821729,679
80822929,681
80824129,682
80825329,682
80826529,683
80827729,683
80828929,682
80830129,682
80831329,682
80832529,682
80833729,683
80834929,683
80836129,683
80837329,683
80838529,684
80839729,683
80840929,684
80842129,684
80843329,685
80844529,686
80845729,687
80846929,688
80848129,690
80849329,691
80850529,691
80851729,692
80852929,692
80854129,693
80855329,692
80856529,692
80857729,693
80858929,694
80860129,695
80861329,695
80862529,694
80863729,694
80864929,694
80866129,694
80867329,693
80868529,693
80869729,692
80870929,692
80872129,692
80873329,692
80874529,692
80875729,691
80876929,690
80878129,690
80879329,691
80880529,691
80881729,691
80882929,690
80884129,689
80885329,689
80886529,688
80887729,689
80888929,689
80890129,689
80891329,689
80892529,689
80893729,689
80894929,690
80896129,691
80897329,692
80898529,694
80899729,696
80900929,697
80902129,697
80903329,697
80904529,698
80905729,698
80906929,699
80908129,702
80909329,702
80910529,701
80911729,701
80912929,703
80914129,702
80915329,702
80916529,700
80917729,699
80918929,698
80920129,696
80921329,695
80922529,694
80923729,693
80924929,694
80926129,694
80927329,693
80928529,693
80929729,692
80930929,691
80932129,692
80933329,693
80934529,694
80935729,695
80936929,695
80938129,695
80939329,694
80940529,694
80941729,695
80942929,695
80944129,694
80945329,694
80946529,695
80947729,694
80948929,692
80950129,690
80951329,689
80952529,689
80953729,688
80954929,688
80956129,687
80957329,686
80958529,685
80959729,685
80960929,683
80962129,683
80963329,682
80964529,682
80965729,681
80966929,681
80968129,681
80969329,681
80970529,681
80971729,680
80972929,680
80974129,680
80975329,680
80976529,680
80977729,680
80978929,681
80980129,681
80981329,682
80982529,682
80983729,682
80984929,682
80986129,681
80987329,680
80988529,680
80989729,680
80990929,680
80992129,680
80993329,680
80994529,680
80995729,681
80996929,681
80998129,682
80999329,683
81000529,683
81001729,683
81002929,683
81004129,682
81005329,682
81006529,682
81007729,682
81008929,682
81010129,682
81011329,682
81012529,682
81013729,682
81014929,682
81016129,682
81017329,681
81018529,680
81019729,680
81020929,680
81022129,682
81023329,682
81024529,682
81025729,683
81026929,683
81028129,683
81029329,682
81030529,683
81031729,683
81032929,683
81034129,683
81035329,683
81036529,683
81037729,683
81038929,683
81040129,684
81041329,683
81042529,682
81043729,682
81044929,681
81046129,679
81047329,679
81048529,678
81049729,677
81050929,676
81052129,676
81053329,675
81054529,674
81055729,674
81056929,673
81058129,673
81059329,672
81060529,672
81061729,671
81062929,670
81064129,670
81065329,670
81066529,670
81067729,669
81068929,669
81070129,668
81071329,667
81072529,667
81073729,667
81074929,667
81076129,667
81077329,666
81078529,666
81079729,667
81080929,667
81082129,667
81083329,668
81084529,668
81085729,667
81086929,666
81088129,665
81089329,665
81090529,665
81091729,666
81092929,666
81094129,665
81095329,665
81096529,665
81097729,665
81098929,665
81100129,664
81101329,664
81102529,664
81103729,664
81104929,664
81106129,664
81107329,663
81108529,662
81109729,661
81110929,661
81112129,660
81113329,660
81114529,661
81115729,661
81116929,662
81118129,663
81119329,664
81120529,663
81121729,662
81122929,662
81124129,662
81125329,662
81126529,663
81127729,663
81128929,663
81130129,662
81131329,661
81132529,661
81133729,662
81134929,662
81136129,663
81137329,662
81138529,662
81139729,662
81140929,661
81142129,660
81143329,659
81144529,659
81145729,659
81146929,659
81148129,659
81149329,659
81150529,659
81151729,660
81152929,660
81154129,661
81155329,662
81156529,662
81157729,661
81158929,661
81160129,659
81161329,658
81162529,659
81163729,660
81164929,660
81166129,660
81167329,660
81168529,660
81169729,659
81170929,659
81172129,659
81173329,659
81174529,659
81175729,659
81176929,659
81178129,659
81179329,659
81180529,658
81181729,659
81182929,658
81184129,657
81185329,658
81186529,658
81187729,658
81188929,657
81190129,657
81191329,657
81192529,657
81193729,657
81194929,657
81196129,656
81197329,657
81198529,657
81199729,657
81200929,657
81202129,656
81203329,657
81204529,658
81205729,658
81206929,659
81208129,660
81209329,660
81210529,659
81211729,660
81212929,660
81214129,660
81215329,661
81216529,662
81217729,662
81218929,662
81220129,661
81221329,662
81222529,662
81223729,663
81224929,663
81226129,663
81227329,662
81228529,662
81229729,661
81230929,660
81232129,660
81233329,658
81234529,657
81235729,658
81236929,658
81238129,658
81239329,659
81240529,658
81241729,659
81242929,659
81244129,660
81245329,659
81246529,659
81247729,658
81248929,657
81250129,658
81251329,659
81252529,661
81253729,661
81254929,662
81256129,662
81257329,661
81258529,660
81259729,659
81260929,659
81262129,659
81263329,659
81264529,659
81265729,660
81266929,659
81268129,658
81269329,656
81270529,655
81271729,654
81272929,652
81274129,651
81275329,649
81276529,649
81277729,650
81278929,652
81280129,653
81281329,654
81282529,654
81283729,653
81284929,653
81286129,653
81287329,653
81288529,653
81289729,651
81290929,650
81292129,649
81293329,649
81294529,650
81295729,650
81296929,650
81298129,650
81299329,652
81300529,653
81301729,654
81302929,654
81304129,654
81305329,656
81306529,655
81307729,656
81308929,657
81310129,657
81311329,658
81312529,658
81313729,658
81314929,658
81316129,658
81317329,658
81318529,659
81319729,660
81320929,660
81322129,659
81323329,658
81324529,656
81325729,656
81326929,656
81328129,657
81329329,658
81330529,658
81331729,658
81332929,658
81334129,658
81335329,658
81336529,657
81337729,657
81338929,658
81340129,660
81341329,661
81342529,662
81343729,662
81344929,662
81346129,662
81347329,661
81348529,660
81349729,661
81350929,661
81352129,662
81353329,664
81354529,664
81355729,665
81356929,666
81358129,665
81359329,665
81360529,666
81361729,666
81362929,667
81364129,667
81365329,668
81366529,669
81367729,671
81368929,671
81370129,671
81371329,672
81372529,672
81373729,671
81374929,671
81376129,672
81377329,673
81378529,672
81379729,672
81380929,671
81382129,670
81383329,670
81384529,669
81385729,669
81386929,668
81388129,668
81389329,668
81390529,669
81391729,669
81392929,669
81394129,671
81395329,672
81396529,673
81397729,674
81398929,674
81400129,676
81401329,676
81402529,678
81403729,680
81404929,682
81406129,683
81407329,685
81408529,686
81409729,683
81410929,686
81412129,687
81413329,687
81414529,688
81415729,688
81416929,689
81418129,688
81419329,688
81420529,688
81421729,687
81422929,686
81424129,686
81425329,685
81426529,686
81427729,686
81428929,683
81430129,681
81431329,679
81432529,679
81433729,678
81434929,677
81436129,675
81437329,674
81438529,674
81439729,674
81440929,675
81442129,675
81443329,676
81444529,678
81445729,679
81446929,680
81448129,681
81449329,679
81450529,679
81451729,680
81452929,682
81454129,681
81455329,681
81456529,683
81457729,684
81458929,685
81460129,684
81461329,684
81462529,684
81463729,684
81464929,682
81466129,682
81467329,682
81468529,682
81469729,682
81470929,681
81472129,680
81473329,679
81474529,680
81475729,681
81476929,680
81478129,680
81479329,679
81480529,679
81481729,679
81482929,678
81484129,678
81485329,678
81486529,677
81487729,678
81488929,677
81490129,677
81491329,676
81492529,675
81493729,674
81494929,672
81496129,671
81497329,670
81498529,669
81499729,668
81500929,668
81502129,667
81503329,666
81504529,666
81505729,665
81506929,665
81508129,665
81509329,665
81510529,665
81511729,665
81512929,664
81514129,665
81515329,664
81516529,664
81517729,663
81518929,663
81520129,663
81521329,663
81522529,663
81523729,662
81524929,662
81526129,662
81527329,661
81528529,661
81529729,661
81530929,661
81532129,662
81533329,662
81534529,662
81535729,662
81536929,661
81538129,661
81539329,660
81540529,660
81541729,660
81542929,661
81544129,662
81545329,663
81546529,663
81547729,663
81548929,662
81550129,663
81551329,663
81552529,663
81553729,663
81554929,664
81556129,665
81557329,665
81558529,666
81559729,666
81560929,667
81562129,668
81563329,668
81564529,669
81565729,669
81566929,671
81568129,671
81569329,671
81570529,671
81571729,672
81572929,673
81574129,674
81575329,675
81576529,675
81577729,676
81578929,675
81580129,674
81581329,674
81582529,674
81583729,674
81584929,674
81586129,674
81587329,673
81588529,673
81589729,672
81590929,672
81592129,672
81593329,672
81594529,672
81595729,671
81596929,671
81598129,670
81599329,671
81600529,670
81601729,671
81602929,672
81604129,672
81605329,672
81606529,671
81607729,670
81608929,671
81610129,671
81611329,672
81612529,672
81613729,673
81614929,672
81616129,672
81617329,672
81618529,673
81619729,673
81620929,674
81622129,673
81623329,672
81624529,672
81625729,671
81626929,672
81628129,672
81629329,672
81630529,672
81631729,671
81632929,671
81634129,670
81635329,669
81636529,668
81637729,668
81638929,668
81640129,667
81641329,666
81642529,666
81643729,665
81644929,665
81646129,664
81647329,664
81648529,662
81649729,663
81650929,663
81652129,663
81653329,664
81654529,663
81655729,663
81656929,663
81658129,664
81659329,663
81660529,663
81661729,664
81662929,664
81664129,665
81665329,666
81666529,668
81667729,668
81668929,668
81670129,668
81671329,668
81672529,668
81673729,669
81674929,670
81676129,670
81677329,671
81678529,670
81679729,670
81680929,671
81682129,671
81683329,671
81684529,671
81685729,672
81686929,673
81688129,674
81689329,675
81690529,676
81691729,677
81692929,677
81694129,678
81695329,679
81696529,680
81697729,680
81698929,679
81700129,679
81701329,678
81702529,678
81703729,677
81704929,676
81706129,676
81707329,676
81708529,678
81709729,676
81710929,676
81712129,676
81713329,675
81714529,675
81715729,676
81716929,675
81718129,674
81719329,673
81720529,672
81721729,672
81722929,671
81724129,671
81725329,670
81726529,669
81727729,668
81728929,668
81730129,668
81731329,668
81732529,668
81733729,668
81734929,668
81736129,669
81737329,670
81738529,671
81739729,673
81740929,673
81742129,673
81743329,673
81744529,675
81745729,675
81746929,676
81748129,676
81749329,677
81750529,679
81751729,681
81752929,683
81754129,685
81755329,686
81756529,688
81757729,690
81758929,692
81760129,695
81761329,698
81762529,700
81763729,703
81764929,703
81766129,705
81767329,708
81768529,711
81769729,712
81770929,711
81772129,711
81773329,710
81774529,709
81775729,710
81776929,710
81778129,711
81779329,710
81780529,708
81781729,707
81782929,707
81784129,705
81785329,704
81786529,702
81787729,701
81788929,701
81790129,699
81791329,700
81792529,701
81793729,699
81794929,698
81796129,696
81797329,697
81798529,698
81799729,697
81800929,698
81802129,699
81803329,698
81804529,697
81805729,697
81806929,697
81808129,697
81809329,697
81810529,698
81811729,698
81812929,698
81814129,696
81815329,695
81816529,693
81817729,693
81818929,690
81820129,688
81821329,688
81822529,687
81823729,686
81824929,685
81826129,686
81827329,685
81828529,684
81829729,684
81830929,682
81832129,681
81833329,681
81834529,680
81835729,680
81836929,680
81838129,681
81839329,683
81840529,682
81841729,682
81842929,680
81844129,679
81845329,680
81846529,680
81847729,680
81848929,678
81850129,677
81851329,677
81852529,676
81853729,676
81854929,677
81856129,678
81857329,676
81858529,677
81859729,677
81860929,677
81862129,676
81863329,677
81864529,678
81865729,678
81866929,678
81868129,677
81869329,676
81870529,674
81871729,674
81872929,675
81874129,674
81875329,671
81876529,671
81877729,672
81878929,669
81880129,667
81881329,666
81882529,665
81883729,664
81884929,665
81886129,664
81887329,662
81888529,661
81889729,660
81890929,659
81892129,659
81893329,659
81894529,659
81895729,659
81896929,658
81898129,658
81899329,658
81900529,658
81901729,658
81902929,659
81904129,658
81905329,659
81906529,659
81907729,659
81908929,661
81910129,662
81911329,663
81912529,665
81913729,666
81914929,666
81916129,664
81917329,665
81918529,667
81919729,667
81920929,666
81922129,667
81923329,665
81924529,665
81925729,666
81926929,665
81928129,666
81929329,667
81930529,666
81931729,666
81932929,667
81934129,667
81935329,668
81936529,668
81937729,667
81938929,669
81940129,668
81941329,669
81942529,670
81943729,671
81944929,672
81946129,670
81947329,672
81948529,674
81949729,675
81950929,673
81952129,673
81953329,674
81954529,674
81955729,670
81956929,668
81958129,667
81959329,668
81960529,669
81961729,668
81962929,668
81964129,669
81965329,670
81966529,672
81967729,674
81968929,672
81970129,672
81971329,673
81972529,672
81973729,673
81974929,672
81976129,672
81977329,671
81978529,670
81979729,668
81980929,668
81982129,667
81983329,670
81984529,670
81985729,670
81986929,671
81988129,670
81989329,671
81990529,672
81991729,673
81992929,673
81994129,674
81995329,675
81996529,675
81997729,676
81998929,675
82000129,674
82001329,673
82002529,671
82003729,669
82004929,668
82006129,668
82007329,667
82008529,665
82009729,665
82010929,665
82012129,665
82013329,666
82014529,666
82015729,666
82016929,665
82018129,664
82019329,665
82020529,666
82021729,666
82022929,668
82024129,668
82025329,669
82026529,671
82027729,670
82028929,670
82030129,669
82031329,668
82032529,669
82033729,670
82034929,671
82036129,673
82037329,674
82038529,675
82039729,676
82040929,675
82042129,674
82043329,676
82044529,676
82045729,673
82046929,671
82048129,671
82049329,670
82050529,671
82051729,671
82052929,670
82054129,669
82055329,670
82056529,669
82057729,668
82058929,668
82060129,667
82061329,667
82062529,668
82063729,670
82064929,671
82066129,670
82067329,671
82068529,672
82069729,671
82070929,672
82072129,672
82073329,670
82074529,669
82075729,670
82076929,670
82078129,669
82079329,669
82080529,669
82081729,670
82082929,670
82084129,669
82085329,667
82086529,668
82087729,669
82088929,669
82090129,671
82091329,671
82092529,672
82093729,671
82094929,673
82096129,673
82097329,673
82098529,675
82099729,675
82100929,674
82102129,674
82103329,673
82104529,672
82105729,671
82106929,673
82108129,673
82109329,672
82110529,671
82111729,671
82112929,671
82114129,670
82115329,668
82116529,667
82117729,667
82118929,667
82120129,669
82121329,670
82122529,668
82123729,670
82124929,672
82126129,675
82127329,676
82128529,677
82129729,677
82130929,678
82132129,679
82133329,679
82134529,680
82135729,679
82136929,678
82138129,679
82139329,679
82140529,677
82141729,675
82142929,675
82144129,674
82145329,673
82146529,672
82147729,673
82148929,674
82150129,674
82151329,675
82152529,676
82153729,676
82154929,676
82156129,675
82157329,673
82158529,671
82159729,670
82160929,670
82162129,669
82163329,668
82164529,669
82165729,670
82166929,669
82168129,669
82169329,669
82170529,668
82171729,668
82172929,667
82174129,666
82175329,665
82176529,665
82177729,666
82178929,665
82180129,664
82181329,664
82182529,663
82183729,661
82184929,660
82186129,660
82187329,659
82188529,658
82189729,658
82190929,657
82192129,657
82193329,659
82194529,661
82195729,663
82196929,664
82198129,664
82199329,664
82200529,665
82201729,665
82202929,664
82204129,665
82205329,665
82206529,664
82207729,663
82208929,663
82210129,663
82211329,663
82212529,662
82213729,662
82214929,661
82216129,662
82217329,661
82218529,660
82219729,660
82220929,659
82222129,658
82223329,659
82224529,660
82225729,659
82226929,657
82228129,658
82229329,658
82230529,659
82231729,659
82232929,659
82234129,658
82235329,658
82236529,658
82237729,658
82238929,659
82240129,659
82241329,659
82242529,659
82243729,660
82244929,660
82246129,661
82247329,659
82248529,661
82249729,662
82250929,662
82252129,663
82253329,663
82254529,662
82255729,663
82256929,663
82258129,662
82259329,662
82260529,660
82261729,660
82262929,661
82264129,661
82265329,660
82266529,657
82267729,656
82268929,655
82270129,655
82271329,656
82272529,655
82273729,655
82274929,655
82276129,655
82277329,655
82278529,655
82279729,655
82280929,655
82282129,655
82283329,655
82284529,655
82285729,654
82286929,653
82288129,654
82289329,656
82290529,657
82291729,656
82292929,656
82294129,656
82295329,658
82296529,659
82297729,660
82298929,660
82300129,661
82301329,663
82302529,663
82303729,664
82304929,665
82306129,663
82307329,664
82308529,665
82309729,665
82310929,666
82312129,666
82313329,664
82314529,662
82315729,662
82316929,662
82318129,665
82319329,666
82320529,665
82321729,665
82322929,665
82324129,665
82325329,664
82326529,664
82327729,665
82328929,664
82330129,664
82331329,661
82332529,661
82333729,660
82334929,659
82336129,660
82337329,660
82338529,659
82339729,659
82340929,658
82342129,657
82343329,657
82344529,657
82345729,658
82346929,659
82348129,661
82349329,661
82350529,661
82351729,663
82352929,664
82354129,664
82355329,666
82356529,666
82357729,666
82358929,667
82360129,667
82361329,665
82362529,665
82363729,664
82364929,662
82366129,661
82367329,661
82368529,661
82369729,661
82370929,660
82372129,660
82373329,658
82374529,659
82375729,659
82376929,660
82378129,661
82379329,661
82380529,661
82381729,660
82382929,659
82384129,659
82385329,660
82386529,661
82387729,662
82388929,660
82390129,660
82391329,660
82392529,660
82393729,662
82394929,661
82396129,662
82397329,663
82398529,663
82399729,663
82400929,661
82402129,661
82403329,660
82404529,659
82405729,657
82406929,656
82408129,655
82409329,654
82410529,653
82411729,652
82412929,652
82414129,651
82415329,651
82416529,652
82417729,649
82418929,651
82420129,651
82421329,650
82422529,650
82423729,651
82424929,650
82426129,648
82427329,647
82428529,646
82429729,645
82430929,643
82432129,642
82433329,641
82434529,642
82435729,641
82436929,640
82438129,638
82439329,638
82440529,637
82441729,637
82442929,638
82444129,637
82445329,637
82446529,637
82447729,637
82448929,637
82450129,637
82451329,637
82452529,638
82453729,638
82454929,637
82456129,638
82457329,637
82458529,637
82459729,636
82460929,635
82462129,636
82463329,635
82464529,636
82465729,635
82466929,635
82468129,635
82469329,634
82470529,634
82471729,634
82472929,633
82474129,632
82475329,632
82476529,632
82477729,632
82478929,632
82480129,632
82481329,633
82482529,633
82483729,633
82484929,632
82486129,632
82487329,632
82488529,631
82489729,631
82490929,631
82492129,632
82493329,631
82494529,630
82495729,631
82496929,631
82498129,631
82499329,631
82500529,631
82501729,631
82502929,632
82504129,631
82505329,631
82506529,631
82507729,631
82508929,630
82510129,631
82511329,631
82512529,630
82513729,632
82514929,633
82516129,633
82517329,634
82518529,633
82519729,633
82520929,633
82522129,634
82523329,635
82524529,635
82525729,636
82526929,636
82528129,635
82529329,636
82530529,635
82531729,636
82532929,635
82534129,635
82535329,635
82536529,637
82537729,636
82538929,637
82540129,638
82541329,638
82542529,636
82543729,635
82544929,635
82546129,635
82547329,636
82548529,636
82549729,636
82550929,635
82552129,634
82553329,633
82554529,633
82555729,632
82556929,630
82558129,630
82559329,631
82560529,631
82561729,632
82562929,633
82564129,633
82565329,633
82566529,634
82567729,635
82568929,635
82570129,634
82571329,633
82572529,633
82573729,633
82574929,634
82576129,634
82577329,633
82578529,634
82579729,634
82580929,634
82582129,632
82583329,632
82584529,632
82585729,632
82586929,631
82588129,632
82589329,631
82590529,630
82591729,630
82592929,630
82594129,630
82595329,629
82596529,628
82597729,628
82598929,628
82600129,628
82601329,627
82602529,627
82603729,629
82604929,629
82606129,630
82607329,632
82608529,631
82609729,632
82610929,631
82612129,631
82613329,631
82614529,632
82615729,631
82616929,632
82618129,632
82619329,631
82620529,632
82621729,631
82622929,630
82624129,631
82625329,633
82626529,634
82627729,635
82628929,634
82630129,634
82631329,634
82632529,634
82633729,633
82634929,631
82636129,631
82637329,632
82638529,633
82639729,632
82640929,634
82642129,633
82643329,633
82644529,633
82645729,634
82646929,633
82648129,635
82649329,635
82650529,634
82651729,633
82652929,633
82654129,632
82655329,631
82656529,631
82657729,630
82658929,629
82660129,628
82661329,626
82662529,624
82663729,624
82664929,623
82666129,622
82667329,622
82668529,621
82669729,619
82670929,618
82672129,618
82673329,617
82674529,617
82675729,616
82676929,615
82678129,613
82679329,613
82680529,612
82681729,612
82682929,611
82684129,611
82685329,611
82686529,610
82687729,609
82688929,608
82690129,606
82691329,606
82692529,607
82693729,607
82694929,607
82696129,607
82697329,608
82698529,609
82699729,608
82700929,608
82702129,608
82703329,608
82704529,608
82705729,607
82706929,607
82708129,607
82709329,607
82710529,607
82711729,608
82712929,608
82714129,609
82715329,610
82716529,609
82717729,608
82718929,607
82720129,606
82721329,606
82722529,605
82723729,605
82724929,604
82726129,604
82727329,603
82728529,603
82729729,602
82730929,602
82732129,601
82733329,601
82734529,601
82735729,601
82736929,601
82738129,601
82739329,600
82740529,602
82741729,602
82742929,604
82744129,604
82745329,604
82746529,603
82747729,603
82748929,603
82750129,604
82751329,604
82752529,603
82753729,603
82754929,603
82756129,603
82757329,603
82758529,604
82759729,603
82760929,603
82762129,603
82763329,605
82764529,604
82765729,605
82766929,607
82768129,607
82769329,608
82770529,609
82771729,608
82772929,608
82774129,609
82775329,608
82776529,608
82777729,610
82778929,613
82780129,612
82781329,614
82782529,616
82783729,616
82784929,616
82786129,617
82787329,617
82788529,618
82789729,617
82790929,617
82792129,618
82793329,619
82794529,620
82795729,620
82796929,621
82798129,622
82799329,623
82800529,625
82801729,626
82802929,625
82804129,627
82805329,628
82806529,630
82807729,632
82808929,632
82810129,632
82811329,631
82812529,631
82813729,630
82814929,630
82816129,630
82817329,629
82818529,628
82819729,628
82820929,627
82822129,628
82823329,628
82824529,628
82825729,627
82826929,628
82828129,628
82829329,628
82830529,629
82831729,629
82832929,630
82834129,630
82835329,630
82836529,629
82837729,631
82838929,630
82840129,630
82841329,631
82842529,631
82843729,631
82844929,630
82846129,630
82847329,629
82848529,629
82849729,629
82850929,628
82852129,627
82853329,627
82854529,628
82855729,628
82856929,628
82858129,627
82859329,628
82860529,628
82861729,625
82862929,624
82864129,623
82865329,622
82866529,623
82867729,621
82868929,621
82870129,620
82871329,621
82872529,620
82873729,619
82874929,618
82876129,617
82877329,617
82878529,617
82879729,616
82880929,616
82882129,615
82883329,615
82884529,616
82885729,616
82886929,616
82888129,614
82889329,614
82890529,614
82891729,614
82892929,615
82894129,615
82895329,615
82896529,615
82897729,614
82898929,616
82900129,617
82901329,616
82902529,615
82903729,617
82904929,617
82906129,617
82907329,616
82908529,616
82909729,616
82910929,615
82912129,616
82913329,617
82914529,617
82915729,618
82916929,618
82918129,618
82919329,618
82920529,619
82921729,619
82922929,618
82924129,618
82925329,617
82926529,618
82927729,620
82928929,620
82930129,621
82931329,622
82932529,622
82933729,622
82934929,622
82936129,622
82937329,623
82938529,623
82939729,622
82940929,624
82942129,627
82943329,627
82944529,629
82945729,631
82946929,632
82948129,632
82949329,631
82950529,629
82951729,629
82952929,628
82954129,629
82955329,629
82956529,629
82957729,633
82958929,632
82960129,631
82961329,628
82962529,628
82963729,629
82964929,629
82966129,626
82967329,624
82968529,625
82969729,625
82970929,627
82972129,626
82973329,625
82974529,626
82975729,627
82976929,628
82978129,629
82979329,630
82980529,632
82981729,630
82982929,630
82984129,629
82985329,629
82986529,628
82987729,628
82988929,628
82990129,628
82991329,629
82992529,627
82993729,627
82994929,627
82996129,628
82997329,628
82998529,627
82999729,627
83000929,627
83002129,627
83003329,629
83004529,627
83005729,626
83006929,626
83008129,626
83009329,627
83010529,630
83011729,628
83012929,627
83014129,626
83015329,626
83016529,627
83017729,627
83018929,628
83020129,626
83021329,627
83022529,625
83023729,624
83024929,625
83026129,624
83027329,621
83028529,619
83029729,617
83030929,616
83032129,616
83033329,617
83034529,617
83035729,617
83036929,616
83038129,616
83039329,615
83040529,614
83041729,611
83042929,610
83044129,608
83045329,608
83046529,607
83047729,606
83048929,606
83050129,606
83051329,605
83052529,603
83053729,602
83054929,601
83056129,600
83057329,599
83058529,598
83059729,598
83060929,598
83062129,598
83063329,599
83064529,599
83065729,599
83066929,598
83068129,598
83069329,598
83070529,598
83071729,596
83072929,595
83074129,594
83075329,594
83076529,593
83077729,593
83078929,593
83080129,592
83081329,593
83082529,592
83083729,592
83084929,592
83086129,593
83087329,593
83088529,593
83089729,593
83090929,593
83092129,594
83093329,595
83094529,594
83095729,594
83096929,594
83098129,594
83099329,594
83100529,594
83101729,594
83102929,594
83104129,594
83105329,594
83106529,593
83107729,592
83108929,592
83110129,592
83111329,593
83112529,594
83113729,594
83114929,594
83116129,594
83117329,594
83118529,594
83119729,594
83120929,595
83122129,595
83123329,595
83124529,596
83125729,596
83126929,596
83128129,596
83129329,597
83130529,598
83131729,599
83132929,600
83134129,601
83135329,602
83136529,603
83137729,602
83138929,602
83140129,604
83141329,604
83142529,605
83143729,606
83144929,608
83146129,608
83147329,609
83148529,609
83149729,610
83150929,611
83152129,612
83153329,614
83154529,614
83155729,614
83156929,615
83158129,615
83159329,615
83160529,614
83161729,615
83162929,616
83164129,616
83165329,616
83166529,616
83167729,614
83168929,615
83170129,616
83171329,617
83172529,617
83173729,616
83174929,616
83176129,615
83177329,615
83178529,615
83179729,615
83180929,617
83182129,618
83183329,618
83184529,618
83185729,617
83186929,617
83188129,616
83189329,616
83190529,617
83191729,617
83192929,618
83194129,618
83195329,618
83196529,617
83197729,616
83198929,615
83200129,615
83201329,615
83202529,614
83203729,613
83204929,613
83206129,612
83207329,611
83208529,611
83209729,611
83210929,611
83212129,610
83213329,609
83214529,608
83215729,606
83216929,606
83218129,606
83219329,606
83220529,606
83221729,606
83222929,607
83224129,606
83225329,606
83226529,606
83227729,607
83228929,607
83230129,608
83231329,608
83232529,608
83233729,609
83234929,610
83236129,610
83237329,610
83238529,611
83239729,611
83240929,610
83242129,610
83243329,610
83244529,609
83245729,609
83246929,609
83248129,609
83249329,608
83250529,608
83251729,609
83252929,609
83254129,608
83255329,608
83256529,608
83257729,607
83258929,607
83260129,607
83261329,606
83262529,605
83263729,605
83264929,605
83266129,605
83267329,604
83268529,603
83269729,603
83270929,602
83272129,602
83273329,602
83274529,601
83275729,601
83276929,601
83278129,602
83279329,602
83280529,601
83281729,602
83282929,603
83284129,603
83285329,604
83286529,604
83287729,603
83288929,602
83290129,602
83291329,602
83292529,603
83293729,603
83294929,605
83296129,605
83297329,605
83298529,606
83299729,605
83300929,605
83302129,606
83303329,607
83304529,608
83305729,608
83306929,606
83308129,605
83309329,607
83310529,607
83311729,607
83312929,606
83314129,605
83315329,606
83316529,606
83317729,606
83318929,605
83320129,605
83321329,604
83322529,604
83323729,603
83324929,604
83326129,604
83327329,604
83328529,604
83329729,605
83330929,605
83332129,605
83333329,606
83334529,606
83335729,606
83336929,605
83338129,605
83339329,606
83340529,606
83341729,607
83342929,607
83344129,606
83345329,604
83346529,605
83347729,605
83348929,606
83350129,604
83351329,605
83352529,605
83353729,605
83354929,604
83356129,605
83357329,605
83358529,605
83359729,606
83360929,607
83362129,607
83363329,606
83364529,607
83365729,607
83366929,607
83368129,607
83369329,607
83370529,608
83371729,608
83372929,609
83374129,609
83375329,609
83376529,608
83377729,607
83378929,608
83380129,607
83381329,607
83382529,606
83383729,606
83384929,606
83386129,605
83387329,604
83388529,605
83389729,606
83390929,606
83392129,606
83393329,606
83394529,605
83395729,605
83396929,603
83398129,603
83399329,602
83400529,601
83401729,602
83402929,602
83404129,602
83405329,602
83406529,601
83407729,601
83408929,601
83410129,601
83411329,602
83412529,602
83413729,602
83414929,602
83416129,603
83417329,603
83418529,603
83419729,603
83420929,602
83422129,601
83423329,601
83424529,601
83425729,601
83426929,601
83428129,601
83429329,602
83430529,602
83431729,603
83432929,604
83434129,604
83435329,605
83436529,605
83437729,605
83438929,606
83440129,607
83441329,607
83442529,608
83443729,608
83444929,608
83446129,608
83447329,608
83448529,607
83449729,607
83450929,606
83452129,606
83453329,606
83454529,605
83455729,605
83456929,605
83458129,605
83459329,604
83460529,604
83461729,604
83462929,604
83464129,604
83465329,604
83466529,605
83467729,604
83468929,605
83470129,605
83471329,605
83472529,605
83473729,606
83474929,606
83476129,606
83477329,606
83478529,606
83479729,605
83480929,605
83482129,604
83483329,604
83484529,604
83485729,605
83486929,604
83488129,604
83489329,603
83490529,603
83491729,602
83492929,602
83494129,602
83495329,602
83496529,602
83497729,601
83498929,601
83500129,601
83501329,601
83502529,601
83503729,601
83504929,600
83506129,600
83507329,600
83508529,600
83509729,600
83510929,600
83512129,600
83513329,600
83514529,600
83515729,600
83516929,600
83518129,599
83519329,599
83520529,598
83521729,597
83522929,597
83524129,597
83525329,597
83526529,597
83527729,597
83528929,596
83530129,596
83531329,596
83532529,596
83533729,595
83534929,595
83536129,595
83537329,595
83538529,594
83539729,594
83540929,594
83542129,594
83543329,594
83544529,593
83545729,593
83546929,593
83548129,592
83549329,592
83550529,592
83551729,592
83552929,592
83554129,592
83555329,592
83556529,592
83557729,592
83558929,592
83560129,591
83561329,591
83562529,591
83563729,591
83564929,591
83566129,591
83567329,591
83568529,591
83569729,591
83570929,590
83572129,590
83573329,589
83574529,589
83575729,589
83576929,589
83578129,589
83579329,589
83580529,589
83581729,589
83582929,589
83584129,589
83585329,589
83586529,589
83587729,589
83588929,590
83590129,590
83591329,590
83592529,591
83593729,591
83594929,591
83596129,591
83597329,591
83598529,591
83599729,591
83600929,591
83602129,591
83603329,590
83604529,591
83605729,591
83606929,591
83608129,591
83609329,590
83610529,590
83611729,591
83612929,591
83614129,591
83615329,591
83616529,591
83617729,591
83618929,591
83620129,591
83621329,591
83622529,591
83623729,591
83624929,591
83626129,591
83627329,591
83628529,590
83629729,590
83630929,590
83632129,590
83633329,590
83634529,590
83635729,590
83636929,590
83638129,590
83639329,590
83640529,590
83641729,590
83642929,590
83644129,590
83645329,590
83646529,590
83647729,590
83648929,590
83650129,590
83651329,589
83652529,589
83653729,589
83654929,589
83656129,589
83657329,589
83658529,589
83659729,589
83660929,589
83662129,589
83663329,590
83664529,590
83665729,590
83666929,590
83668129,590
83669329,590
83670529,590
83671729,590
83672929,590
83674129,590
83675329,590
83676529,590
83677729,590
83678929,590
83680129,590
83681329,590
83682529,590
83683729,590
83684929,589
83686129,589
83687329,590
83688529,590
83689729,590
83690929,590
83692129,590
83693329,590
83694529,590
83695729,590
83696929,589
83698129,590
83699329,589
83700529,590
83701729,590
83702929,589
83704129,590
83705329,590
83706529,589
83707729,589
83708929,589
83710129,589
83711329,588
83712529,588
83713729,588
83714929,587
83716129,587
83717329,587
83718529,587
83719729,587
83720929,587
83722129,587
83723329,587
83724529,587
83725729,586
83726929,587
83728129,586
83729329,586
83730529,587
83731729,587
83732929,587
83734129,587
83735329,588
83736529,588
83737729,588
83738929,588
83740129,589
83741329,589
83742529,589
83743729,589
83744929,591
83746129,589
83747329,590
83748529,590
83749729,590
83750929,590
83752129,590
83753329,590
83754529,589
83755729,589
83756929,589
83758129,590
83759329,590
83760529,590
83761729,590
83762929,590
83764129,590
83765329,590
83766529,590
83767729,589
83768929,589
83770129,589
83771329,589
83772529,589
83773729,589
83774929,589
83776129,589
83777329,589
83778529,589
83779729,589
83780929,589
83782129,589
83783329,589
83784529,589
83785729,589
83786929,589
83788129,589
83789329,589
83790529,590
83791729,590
83792929,590
83794129,589
83795329,589
83796529,590
83797729,589
83798929,589
83800129,589
83801329,589
83802529,589
83803729,589
83804929,589
83806129,590
83807329,589
83808529,589
83809729,590
83810929,589
83812129,589
83813329,589
83814529,589
83815729,589
83816929,589
83818129,589
83819329,589
83820529,589
83821729,589
83822929,589
83824129,589
83825329,590
83826529,590
83827729,590
83828929,591
83830129,591
83831329,591
83832529,592
83833729,591
83834929,591
83836129,591
83837329,590
83838529,590
83839729,590
83840929,590
83842129,591
83843329,591
83844529,590
83845729,591
83846929,591
83848129,591
83849329,592
83850529,592
83851729,592
83852929,592
83854129,591
83855329,591
83856529,592
83857729,592
83858929,592
83860129,592
83861329,593
83862529,593
83863729,593
83864929,593
83866129,592
83867329,592
83868529,593
83869729,593
83870929,593
83872129,593
83873329,593
83874529,593
83875729,593
83876929,593
83878129,592
83879329,592
83880529,593
83881729,593
83882929,593
83884129,593
83885329,593
83886529,594
83887729,594
83888929,594
83890129,594
83891329,594
83892529,594
83893729,594
83894929,594
83896129,593
83897329,594
83898529,594
83899729,595
83900929,595
83902129,595
83903329,595
83904529,595
83905729,595
83906929,594
83908129,595
83909329,595
83910529,595
83911729,596
83912929,596
83914129,595
83915329,595
83916529,595
83917729,595
83918929,594
83920129,595
83921329,594
83922529,594
83923729,594
83924929,594
83926129,594
83927329,594
83928529,593
83929729,593
83930929,593
83932129,594
83933329,594
83934529,594
83935729,594
83936929,594
83938129,593
83939329,594
83940529,594
83941729,594
83942929,594
83944129,594
83945329,593
83946529,593
83947729,593
83948929,592
83950129,592
83951329,593
83952529,593
83953729,593
83954929,593
83956129,593
83957329,593
83958529,592
83959729,592
83960929,592
83962129,592
83963329,592
83964529,593
83965729,593
83966929,593
83968129,593
83969329,594
83970529,594
83971729,593
83972929,593
83974129,593
83975329,593
83976529,593
83977729,593
83978929,594
83980129,594
83981329,594
83982529,594
83983729,594
83984929,593
83986129,593
83987329,593
83988529,593
83989729,592
83990929,592
83992129,592
83993329,592
83994529,592
83995729,593
83996929,593
83998129,593
83999329,593
84000529,593
84001729,593
84002929,593
84004129,593
84005329,593
84006529,593
84007729,592
84008929,593
84010129,593
84011329,592
84012529,593
84013729,593
84014929,593
84016129,592
84017329,592
84018529,592
84019729,592
84020929,593
84022129,592
84023329,592
84024529,591
84025729,592
84026929,592
84028129,591
84029329,592
84030529,592
84031729,592
84032929,592
84034129,592
84035329,592
84036529,592
84037729,592
84038929,592
84040129,592
84041329,592
84042529,592
84043729,592
84044929,592
84046129,592
84047329,594
84048529,593
84049729,593
84050929,593
84052129,593
84053329,593
84054529,593
84055729,593
84056929,592
84058129,593
84059329,593
84060529,592
84061729,593
84062929,593
84064129,592
84065329,592
84066529,592
84067729,592
84068929,592
84070129,592
84071329,593
84072529,593
84073729,593
84074929,593
84076129,593
84077329,593
84078529,593
84079729,592
84080929,592
84082129,592
84083329,592
84084529,592
84085729,591
84086929,592
84088129,592
84089329,592
84090529,592
84091729,592
84092929,592
84094129,592
84095329,592
84096529,592
84097729,592
84098929,592
84100129,592
84101329,592
84102529,592
84103729,592
84104929,592
84106129,592
84107329,592
84108529,592
84109729,592
84110929,592
84112129,592
84113329,592
84114529,592
84115729,592
84116929,592
84118129,592
84119329,592
84120529,592
84121729,592
84122929,592
84124129,591
84125329,591
84126529,591
84127729,591
84128929,591
84130129,592
84131329,591
84132529,591
84133729,591
84134929,592
84136129,591
84137329,591
84138529,591
84139729,591
84140929,591
84142129,591
84143329,591
84144529,591
84145729,591
84146929,592
84148129,592
84149329,592
84150529,592
84151729,592
84152929,592
84154129,592
84155329,592
84156529,592
84157729,593
84158929,594
84160129,594
84161329,594
84162529,594
84163729,594
84164929,594
84166129,594
84167329,594
84168529,594
84169729,593
84170929,593
84172129,593
84173329,593
84174529,593
84175729,593
84176929,593
84178129,593
84179329,593
84180529,592
84181729,593
84182929,593
84184129,593
84185329,593
84186529,593
84187729,593
84188929,593
84190129,594
84191329,593
84192529,593
84193729,593
84194929,593
84196129,592
84197329,593
84198529,592
84199729,593
84200929,593
84202129,593
84203329,593
84204529,593
84205729,593
84206929,593
84208129,593
84209329,593
84210529,593
84211729,592
84212929,592
84214129,592
84215329,592
84216529,592
84217729,592
84218929,592
84220129,592
84221329,593
84222529,593
84223729,593
84224929,592
84226129,592
84227329,592
84228529,592
84229729,592
84230929,592
84232129,592
84233329,592
84234529,592
84235729,592
84236929,592
84238129,592
84239329,592
84240529,592
84241729,592
84242929,593
84244129,593
84245329,593
84246529,592
84247729,592
84248929,592
84250129,592
84251329,591
84252529,591
84253729,591
84254929,591
84256129,591
84257329,591
84258529,592
84259729,592
84260929,592
84262129,592
84263329,592
84264529,592
84265729,592
84266929,592
84268129,591
84269329,591
84270529,591
84271729,591
84272929,591
84274129,591
84275329,591
84276529,591
84277729,591
84278929,591
84280129,591
84281329,591
84282529,591
84283729,591
84284929,591
84286129,591
84287329,591
84288529,591
84289729,591
84290929,590
84292129,591
84293329,591
84294529,591
84295729,591
84296929,591
84298129,591
84299329,591
84300529,592
84301729,591
84302929,592
84304129,592
84305329,591
84306529,591
84307729,590
84308929,591
84310129,590
84311329,591
84312529,591
84313729,591
84314929,591
84316129,591
84317329,591
84318529,591
84319729,591
84320929,591
84322129,591
84323329,591
84324529,591
84325729,591
84326929,591
84328129,591
84329329,591
84330529,591
84331729,591
84332929,591
84334129,591
84335329,591
84336529,590
84337729,590
84338929,590
84340129,590
84341329,590
84342529,590
84343729,590
84344929,589
84346129,589
84347329,589
84348529,589
84349729,589
84350929,589
84352129,589
84353329,589
84354529,589
84355729,589
84356929,589
84358129,588
84359329,588
84360529,588
84361729,588
84362929,588
84364129,588
84365329,588
84366529,588
84367729,588
84368929,588
84370129,588
84371329,588
84372529,588
84373729,588
84374929,588
84376129,588
84377329,588
84378529,588
84379729,588
84380929,588
84382129,588
84383329,588
84384529,588
84385729,588
84386929,588
84388129,588
84389329,587
84390529,587
84391729,587
84392929,587
84394129,587
84395329,587
84396529,588
84397729,587
84398929,588
84400129,588
84401329,588
84402529,587
84403729,587
84404929,587
84406129,587
84407329,587
84408529,587
84409729,587
84410929,587
84412129,587
84413329,587
84414529,587
84415729,587
84416929,587
84418129,587
84419329,587
84420529,587
84421729,587
84422929,587
84424129,586
84425329,586
84426529,586
84427729,586
84428929,586
84430129,586
84431329,586
84432529,587
84433729,587
84434929,586
84436129,587
84437329,586
84438529,586
84439729,587
84440929,587
84442129,587
84443329,587
84444529,587
84445729,587
84446929,586
84448129,587
84449329,586
84450529,586
84451729,587
84452929,587
84454129,586
84455329,587
84456529,587
84457729,587
84458929,587
84460129,587
84461329,586
84462529,587
84463729,587
84464929,586
84466129,586
84467329,586
84468529,586
84469729,586
84470929,586
84472129,586
84473329,586
84474529,586
84475729,586
84476929,586
84478129,586
84479329,586
84480529,586
84481729,586
84482929,586
84484129,586
84485329,586
84486529,586
84487729,586
84488929,586
84490129,586
84491329,586
84492529,586
84493729,586
84494929,586
84496129,586
84497329,586
84498529,586
84499729,586
84500929,586
84502129,586
84503329,586
84504529,586
84505729,586
84506929,586
84508129,586
84509329,586
84510529,586
84511729,586
84512929,586
84514129,586
84515329,586
84516529,586
84517729,586
84518929,586
84520129,586
84521329,586
84522529,586
84523729,586
84524929,586
84526129,586
84527329,586
84528529,586
84529729,586
84530929,586
84532129,586
84533329,586
84534529,586
84535729,586
84536929,586
84538129,586
84539329,586
84540529,586
84541729,586
84542929,586
84544129,586
84545329,586
84546529,586
84547729,586
84548929,586
84550129,587
84551329,586
84552529,586
84553729,586
84554929,586
84556129,586
84557329,586
84558529,587
84559729,587
84560929,587
84562129,587
84563329,586
84564529,587
84565729,586
84566929,587
84568129,586
84569329,586
84570529,587
84571729,587
84572929,587
84574129,587
84575329,587
84576529,587
84577729,587
84578929,587
84580129,587
84581329,587
84582529,587
84583729,587
84584929,587
84586129,586
84587329,587
84588529,587
84589729,586
84590929,586
84592129,586
84593329,587
84594529,587
84595729,587
84596929,586
84598129,587
84599329,587
84600529,587
84601729,587
84602929,587
84604129,587
84605329,587
84606529,587
84607729,587
84608929,587
84610129,587
84611329,586
84612529,587
84613729,587
84614929,586
84616129,586
84617329,586
84618529,586
84619729,586
84620929,586
84622129,586
84623329,586
84624529,586
84625729,586
84626929,586
84628129,586
84629329,586
84630529,586
84631729,586
84632929,586
84634129,586
84635329,586
84636529,586
84637729,586
84638929,586
84640129,586
84641329,586
84642529,587
84643729,587
84644929,587
84646129,587
84647329,587
84648529,587
84649729,587
84650929,587
84652129,586
84653329,587
84654529,587
84655729,587
84656929,587
84658129,586
84659329,586
84660529,587
84661729,586
84662929,586
84664129,586
84665329,586
84666529,587
84667729,586
84668929,586
84670129,586
84671329,586
84672529,586
84673729,586
84674929,586
84676129,586
84677329,586
84678529,586
84679729,586
84680929,586
84682129,586
84683329,586
84684529,586
84685729,586
84686929,586
84688129,586
84689329,585
84690529,586
84691729,586
84692929,586
84694129,586
84695329,586
84696529,586
84697729,586
84698929,586
84700129,586
84701329,586
84702529,586
84703729,586
84704929,586
84706129,586
84707329,586
84708529,586
84709729,586
84710929,585
84712129,586
84713329,586
84714529,586
84715729,586
84716929,586
84718129,586
84719329,586
84720529,586
84721729,586
84722929,585
84724129,585
84725329,585
84726529,585
84727729,585
84728929,585
84730129,585
84731329,585
84732529,585
84733729,586
84734929,585
84736129,585
84737329,585
84738529,585
84739729,585
84740929,585
84742129,585
84743329,585
84744529,585
84745729,585
84746929,585
84748129,585
84749329,585
84750529,585
84751729,586
84752929,586
84754129,586
84755329,586
84756529,586
84757729,586
84758929,586
84760129,586
84761329,585
84762529,585
84763729,585
84764929,585
84766129,585
84767329,586
84768529,585
84769729,586
84770929,585
84772129,585
84773329,585
84774529,585
84775729,584
84776929,585
84778129,585
84779329,585
84780529,585
84781729,585
84782929,585
84784129,584
84785329,584
84786529,585
84787729,585
84788929,585
84790129,584
84791329,585
84792529,584
84793729,584
84794929,584
84796129,584
84797329,584
84798529,584
84799729,584
84800929,584
84802129,584
84803329,584
84804529,584
84805729,585
84806929,585
84808129,584
84809329,584
84810529,584
84811729,584
84812929,584
84814129,584
84815329,584
84816529,584
84817729,584
84818929,584
84820129,584
84821329,584
84822529,584
84823729,584
84824929,584
84826129,584
84827329,584
84828529,585
84829729,584
84830929,584
84832129,584
84833329,584
84834529,584
84835729,584
84836929,584
84838129,584
84839329,584
84840529,584
84841729,584
84842929,584
84844129,584
84845329,584
84846529,584
84847729,584
84848929,584
84850129,584
84851329,584
84852529,584
84853729,584
84854929,583
84856129,583
84857329,583
84858529,583
84859729,583
84860929,583
84862129,583
84863329,583
84864529,583
84865729,583
84866929,583
84868129,583
84869329,583
84870529,583
84871729,583
84872929,583
84874129,583
84875329,583
84876529,582
84877729,583
84878929,582
84880129,582
84881329,583
84882529,582
84883729,582
84884929,582
84886129,582
84887329,582
84888529,582
84889729,582
84890929,582
84892129,582
84893329,582
84894529,582
84895729,582
84896929,582
84898129,583
84899329,582
84900529,582
84901729,582
84902929,582
84904129,582
84905329,582
84906529,582
84907729,582
84908929,582
84910129,582
84911329,581
84912529,582
84913729,582
84914929,582
84916129,582
84917329,582
84918529,582
84919729,582
84920929,582
84922129,581
84923329,582
84924529,582
84925729,582
84926929,582
84928129,582
84929329,582
84930529,582
84931729,582
84932929,582
84934129,582
84935329,582
84936529,582
84937729,582
84938929,582
84940129,582
84941329,582
84942529,582
84943729,582
84944929,582
84946129,582
84947329,582
84948529,582
84949729,582
84950929,582
84952129,582
84953329,582
84954529,582
84955729,582
84956929,582
84958129,582
84959329,582
84960529,582
84961729,582
84962929,582
84964129,582
84965329,582
84966529,582
84967729,582
84968929,582
84970129,582
84971329,582
84972529,582
84973729,582
84974929,582
84976129,582
84977329,582
84978529,582
84979729,582
84980929,582
84982129,582
84983329,582
84984529,582
84985729,582
84986929,582
84988129,582
84989329,582
84990529,582
84991729,582
84992929,582
84994129,582
84995329,582
84996529,582
84997729,582
84998929,582
85000129,582
85001329,582
85002529,582
85003729,582
85004929,582
85006129,582
85007329,582
85008529,582
85009729,582
85010929,582
85012129,582
85013329,582
85014529,582
85015729,582
85016929,582
85018129,582
85019329,582
85020529,582
85021729,582
85022929,582
85024129,582
85025329,581
85026529,582
85027729,581
85028929,581
85030129,581
85031329,582
85032529,582
85033729,582
85034929,581
85036129,582
85037329,582
85038529,581
85039729,582
85040929,582
85042129,582
85043329,582
85044529,582
85045729,582
85046929,582
85048129,582
85049329,582
85050529,582
85051729,582
85052929,582
85054129,582
85055329,582
85056529,582
85057729,583
85058929,583
85060129,583
85061329,583
85062529,582
85063729,583
85064929,583
85066129,582
85067329,582
85068529,583
85069729,582
85070929,583
85072129,582
85073329,582
85074529,582
85075729,582
85076929,582
85078129,582
85079329,582
85080529,582
85081729,582
85082929,582
85084129,582
85085329,582
85086529,582
85087729,582
85088929,582
85090129,582
85091329,582
85092529,582
85093729,582
85094929,582
85096129,582
85097329,582
85098529,582
85099729,582
85100929,582
85102129,582
85103329,582
85104529,582
85105729,582
85106929,581
85108129,582
85109329,582
85110529,582
85111729,582
85112929,582
85114129,582
85115329,582
85116529,582
85117729,582
85118929,582
85120129,582
85121329,582
85122529,582
85123729,582
85124929,582
85126129,582
85127329,582
85128529,582
85129729,582
85130929,582
85132129,582
85133329,582
85134529,582
85135729,582
85136929,582
85138129,582
85139329,582
85140529,582
85141729,582
85142929,582
85144129,582
85145329,581
85146529,582
85147729,582
85148929,582
85150129,582
85151329,582
85152529,582
85153729,582
85154929,582
85156129,582
85157329,582
85158529,582
85159729,582
85160929,582
85162129,582
85163329,582
85164529,582
85165729,582
85166929,582
85168129,581
85169329,581
85170529,581
85171729,582
85172929,581
85174129,581
85175329,581
85176529,581
85177729,581
85178929,581
85180129,581
85181329,581
85182529,581
85183729,581
85184929,581
85186129,581
85187329,581
85188529,581
85189729,581
85190929,581
85192129,581
85193329,581
85194529,581
85195729,581
85196929,581
85198129,581
85199329,581
85200529,581
85201729,581
85202929,581
85204129,581
85205329,581
85206529,581
85207729,581
85208929,581
85210129,581
85211329,582
85212529,582
85213729,582
85214929,581
85216129,581
85217329,581
85218529,581
85219729,581
85220929,581
85222129,581
85223329,581
85224529,581
85225729,581
85226929,581
85228129,581
85229329,581
85230529,581
85231729,581
85232929,581
85234129,581
85235329,581
85236529,581
85237729,581
85238929,581
85240129,581
85241329,581
85242529,581
85243729,581
85244929,581
85246129,581
85247329,581
85248529,581
85249729,581
85250929,581
85252129,581
85253329,581
85254529,581
85255729,581
85256929,581
85258129,581
85259329,581
85260529,581
85261729,581
85262929,581
85264129,581
85265329,582
85266529,582
85267729,582
85268929,581
85270129,581
85271329,581
85272529,581
85273729,582
85274929,582
85276129,582
85277329,582
85278529,582
85279729,582
85280929,582
85282129,582
85283329,582
85284529,581
85285729,581
85286929,581
85288129,581
85289329,581
85290529,581
85291729,581
85292929,581
85294129,581
85295329,581
85296529,581
85297729,582
85298929,581
85300129,581
85301329,581
85302529,581
85303729,581
85304929,581
85306129,581
85307329,581
85308529,581
85309729,581
85310929,581
85312129,581
85313329,581
85314529,581
85315729,581
85316929,581
85318129,581
85319329,581
85320529,581
85321729,581
85322929,581
85324129,581
85325329,580
85326529,580
85327729,580
85328929,580
85330129,580
85331329,580
85332529,580
85333729,580
85334929,580
85336129,580
85337329,580
85338529,580
85339729,580
85340929,580
85342129,580
85343329,580
85344529,580
85345729,580
85346929,580
85348129,580
85349329,580
85350529,580
85351729,580
85352929,580
85354129,580
85355329,580
85356529,580
85357729,581
85358929,580
85360129,581
85361329,581
85362529,581
85363729,581
85364929,581
85366129,581
85367329,581
85368529,581
85369729,582
85370929,581
85372129,582
85373329,582
85374529,582
85375729,582
85376929,582
85378129,582
85379329,582
85380529,582
85381729,582
85382929,582
85384129,582
85385329,583
85386529,582
85387729,582
85388929,582
85390129,582
85391329,582
85392529,582
85393729,582
85394929,582
85396129,582
85397329,582
85398529,582
85399729,582
85400929,582
85402129,582
85403329,582
85404529,583
85405729,582
85406929,582
85408129,582
85409329,582
85410529,582
85411729,582
85412929,582
85414129,582
85415329,582
85416529,582
85417729,583
85418929,583
85420129,582
85421329,583
85422529,582
85423729,582
85424929,582
85426129,582
85427329,582
85428529,582
85429729,582
85430929,582
85432129,582
85433329,582
85434529,582
85435729,582
85436929,582
85438129,582
85439329,582
85440529,582
85441729,582
85442929,582
85444129,582
85445329,582
85446529,582
85447729,582
85448929,582
85450129,582
85451329,582
85452529,582
85453729,582
85454929,582
85456129,582
85457329,582
85458529,582
85459729,582
85460929,582
85462129,582
85463329,583
85464529,582
85465729,582
85466929,582
85468129,582
85469329,582
85470529,582
85471729,582
85472929,582
85474129,582
85475329,582
85476529,582
85477729,582
85478929,582
85480129,582
85481329,582
85482529,582
85483729,582
85484929,582
85486129,582
85487329,582
85488529,582
85489729,582
85490929,582
85492129,582
85493329,582
85494529,582
85495729,582
85496929,582
85498129,582
85499329,582
85500529,582
85501729,582
85502929,582
85504129,582
85505329,582
85506529,582
85507729,582
85508929,582
85510129,582
85511329,582
85512529,582
85513729,582
85514929,582
85516129,583
85517329,582
85518529,582
85519729,582
85520929,583
85522129,582
85523329,582
85524529,583
85525729,582
85526929,583
85528129,583
85529329,582
85530529,582
85531729,582
85532929,582
85534129,582
85535329,582
85536529,582
85537729,582
85538929,582
85540129,582
85541329,582
85542529,582
85543729,582
85544929,583
85546129,582
85547329,583
85548529,582
85549729,582
85550929,582
85552129,582
85553329,582
85554529,582
85555729,583
85556929,582
85558129,582
85559329,582
85560529,582
85561729,582
85562929,582
85564129,582
85565329,582
85566529,582
85567729,582
85568929,582
85570129,582
85571329,582
85572529,582
85573729,582
85574929,582
85576129,582
85577329,582
85578529,582
85579729,582
85580929,582
85582129,582
85583329,582
85584529,582
85585729,582
85586929,582
85588129,582
85589329,582
85590529,582
85591729,582
85592929,582
85594129,582
85595329,582
85596529,582
85597729,582
85598929,582
85600129,582
85601329,582
85602529,582
85603729,582
85604929,582
85606129,582
85607329,582
85608529,582
85609729,582
85610929,582
85612129,582
85613329,582
85614529,582
85615729,582
