2009,599
2080,599
2114,599
2147,598
2183,598
2217,599
2252,599
2285,598
2319,598
2355,599
2389,598
2424,598
2458,599
2492,599
3015,598
3872,598
4729,598
5586,599
6444,598
7301,599
8158,599
9015,598
9872,598
10729,598
11672,598
12615,598
13558,598
14501,599
15444,598
16386,597
17329,599
18272,597
19215,598
20158,598
21101,599
22044,599
22986,598
23929,600
24872,599
25815,599
26758,599
27701,597
28644,599
29586,599
30529,599
31472,599
32415,599
33358,599
34301,599
35244,599
36186,599
37129,599
38072,599
39015,599
39958,599
40901,599
41844,600
42786,600
43729,600
44672,600
45615,600
46558,600
47501,600
48444,600
49386,600
50329,600
51272,599
52215,599
53158,600
54101,600
55044,599
55986,601
56929,600
57872,599
58815,600
59758,599
60701,599
61644,600
62586,600
63529,599
64472,600
65415,599
66358,599
67301,599
68244,599
69186,599
70129,600
71072,599
72015,599
72958,599
73901,598
74844,598
75786,599
76729,599
77672,598
78615,598
79558,598
80501,598
81444,598
82386,598
83329,598
84272,598
85215,598
86158,598
87101,598
88044,598
88986,598
89929,597
90872,597
91815,599
92758,598
93701,598
94644,598
95586,598
96529,597
97472,599
98415,597
99358,597
100301,597
101329,598
102358,598
103386,598
104415,598
105444,597
106472,595
107501,599
108529,596
109558,597
110586,598
111615,598
112644,599
113672,597
114701,597
115729,597
116758,597
117786,597
118815,598
119844,598
120872,598
121901,598
122929,598
123958,597
124986,598
126015,597
127044,598
128072,597
129101,598
130129,598
131158,597
132186,598
133215,598
134244,598
135272,599
136301,598
137329,598
138358,598
139386,598
140415,598
141444,598
142472,598
143501,598
144529,598
145558,598
146586,598
147615,598
148644,597
149672,598
150701,598
151729,599
152758,598
153786,598
154815,598
155844,598
156872,598
157901,597
158929,598
159958,598
160986,598
162015,599
163044,599
164072,598
165101,599
166129,599
167158,599
168186,599
169215,599
170244,599
171272,599
172301,598
173329,599
174358,599
175386,599
176415,599
177444,599
178472,599
179501,598
180529,599
181558,599
182586,599
183615,599
184644,599
185672,599
186701,599
187729,598
188758,599
189786,599
190815,599
191844,599
192872,599
193901,600
194929,599
195958,598
196986,600
198015,599
199044,599
200072,599
201101,600
202129,599
203158,599
204186,599
205215,600
206244,599
207272,599
208301,599
209329,600
210358,599
211386,599
212415,600
213444,600
214472,600
215501,599
216529,600
217558,600
218586,601
219615,600
220644,599
221672,601
222701,600
223729,600
224758,600
225786,601
226815,601
227844,602
228872,601
229901,601
230929,601
231958,601
232986,601
234015,601
235044,601
236072,601
237101,602
238129,602
239158,602
240186,602
241215,601
242244,604
243272,602
244301,601
245329,602
246358,603
247386,602
248415,603
249444,601
250472,603
251501,602
252529,602
253558,602
254586,601
255615,601
256644,603
257672,602
258701,602
259729,602
260758,602
261786,602
262815,603
263844,603
264872,603
265901,602
266929,602
267958,603
268986,604
270015,602
271044,602
272072,602
273101,602
274129,601
275158,601
276186,601
277215,601
278244,601
279272,601
280301,599
281329,601
282358,601
283386,601
284415,601
285444,599
286472,601
287501,601
288529,601
289558,600
290586,601
291615,600
292644,601
293672,601
294701,600
295729,601
296758,601
297786,601
298815,601
299844,600
300872,601
301901,600
302929,600
303958,600
304986,600
306015,599
307044,599
308072,598
309101,598
310129,598
311158,598
312186,598
313215,597
314244,597
315272,598
316301,596
317329,597
318358,596
319386,597
320415,597
321444,595
322472,597
323501,597
324529,595
325558,596
326586,597
327615,596
328644,597
329672,597
330701,599
331729,597
332758,597
333786,597
334815,598
335844,598
336872,598
337901,598
338929,598
339958,598
340986,598
342015,598
343044,598
344072,598
345101,598
346129,598
347158,598
348186,597
349215,598
350244,598
351272,598
352301,598
353329,598
354358,598
355386,598
356415,598
357444,597
358472,598
359501,598
360529,598
361558,597
362586,598
363615,598
364644,596
365672,598
366701,599
367729,598
368758,598
369786,598
370815,598
371844,599
372872,599
373901,599
374929,599
375958,599
376986,599
378015,599
379044,599
380072,599
381101,598
382129,599
383158,600
384186,599
385215,599
386244,599
387272,598
388301,599
389329,599
390358,599
391386,600
392415,599
393444,599
394472,599
395501,599
396529,599
397558,599
398586,599
399615,598
400644,599
401672,599
402701,598
403729,598
404758,598
405786,598
406815,598
407844,598
408872,598
409901,597
410929,598
411958,598
412986,598
414015,598
415044,598
416072,598
417101,597
418129,597
419158,597
420186,598
421215,598
422244,597
423272,597
424301,598
425329,598
426358,598
427386,598
428415,598
429444,597
430472,598
431501,598
432529,598
433558,598
434586,597
435615,598
436644,598
437672,601
438701,598
439729,598
440758,598
441786,598
442815,598
443844,598
444872,598
445901,598
446929,598
447958,599
448986,598
450015,599
451044,599
452072,599
453101,599
454129,599
455158,599
456186,599
457215,598
458244,598
459272,599
460301,599
461329,599
462358,599
463386,599
464415,599
465444,599
466472,599
467501,600
468529,599
469558,599
470586,599
471615,599
472644,600
473672,600
474701,599
475729,600
476758,600
477786,600
478815,599
479844,600
480872,599
481901,600
482929,600
483958,600
484986,600
486015,599
487044,600
488072,601
489101,600
490129,600
491158,601
492186,600
493215,599
494244,601
495272,600
496301,600
497329,600
498358,599
499386,600
500415,600
501444,600
502472,600
503501,600
504529,600
505558,600
506586,601
507615,600
508644,600
509672,600
510701,599
511729,600
512758,600
513786,599
514815,600
515844,599
516872,599
517901,599
518929,599
519958,599
520986,599
522015,603
523044,599
524072,599
525101,599
526129,599
527158,598
528186,598
529215,598
530244,598
531272,598
532301,599
533329,599
534358,599
535386,598
536415,598
537444,598
538472,599
539501,599
540529,599
541558,599
542586,598
543615,598
544644,598
545672,598
546701,599
547729,599
548758,599
549786,599
550815,599
551844,599
552872,599
553901,599
554929,599
555958,599
556986,599
558015,600
559044,599
560072,599
561101,599
562129,600
563158,600
564186,599
565215,599
566244,599
567272,599
568301,599
569329,598
570358,598
571386,599
572415,598
573444,599
574472,599
575501,600
576529,600
577558,599
578586,599
579615,600
580644,600
581672,600
582701,600
583729,598
584758,599
585786,600
586815,599
587844,599
588872,599
589901,599
590929,599
591958,599
592986,600
594015,599
595044,600
596072,600
597101,600
598129,600
599158,600
600186,600
601215,601
602244,599
603272,601
604301,601
605329,602
606358,601
607386,602
608415,602
609444,601
610472,601
611501,601
612529,602
613558,602
614586,601
615615,601
616644,602
617672,602
618701,602
619729,601
620758,603
621786,602
622815,602
623844,602
624872,602
625901,602
626929,602
627958,602
628986,602
630015,601
631044,602
632072,602
633101,600
634129,602
635158,601
636186,601
637215,602
638244,602
639272,602
640301,602
641329,601
642358,600
643386,600
644415,600
645444,600
646472,600
647501,599
648529,599
649558,599
650586,599
651615,599
652644,598
653672,598
654701,598
655729,598
656758,598
657786,598
658815,599
659844,599
660872,598
661901,598
662929,598
663958,598
664986,598
666015,598
667044,596
668072,599
669101,596
670129,599
671158,599
672186,599
673215,601
674244,599
675272,600
676301,600
677329,600
678358,600
679386,599
680415,600
681444,600
682472,600
683501,600
684529,600
685558,600
686586,600
687615,600
688644,601
689672,601
690701,601
691729,601
692758,601
693786,601
694815,601
695844,601
696872,601
697901,602
698929,604
699958,601
700986,602
702015,601
703044,602
704072,602
705101,599
706129,602
707158,601
708186,601
709215,601
710244,601
711272,601
712301,600
713329,600
714358,600
715386,600
716415,599
717444,600
718472,599
719501,599
720529,599
721558,599
722586,598
723615,599
724644,599
725672,598
726701,599
727729,599
728758,599
729786,599
730815,598
731844,599
732872,599
733901,598
734929,599
735958,599
736986,599
738015,599
739044,599
740072,598
741101,597
742129,598
743158,599
744186,598
745215,598
746244,599
747272,599
748301,599
749329,599
750358,599
751386,599
752415,599
753444,599
754472,599
755501,600
756529,599
757558,598
758586,599
759615,599
760644,599
761672,600
762701,600
763729,600
764758,601
765786,600
766815,601
767844,601
768872,601
769901,601
770929,602
771958,601
772986,602
774015,602
775044,602
776072,602
777101,602
778129,603
779158,603
780186,603
781215,603
782244,603
783272,603
784301,603
785329,603
786358,604
787386,603
788415,604
789444,603
790472,603
791501,603
792529,603
793558,603
794586,603
795615,602
796644,602
797672,602
798701,602
799729,602
800758,601
801786,602
802815,602
803844,602
804872,602
805901,603
806929,602
807958,603
808986,603
810015,603
811044,603
812072,603
813101,603
814129,603
815158,603
816186,603
817215,603
818244,603
819272,602
820301,603
821329,602
822358,603
823386,603
824415,604
825444,604
826472,604
827501,603
828529,603
829558,603
830586,604
831615,603
832644,603
833672,603
834701,603
835729,603
836758,602
837786,602
838815,602
839844,602
840872,602
841901,601
842929,601
843958,602
844986,602
846015,602
847044,602
848072,602
849101,603
850129,603
851158,603
852186,603
853215,603
854244,603
855272,603
856301,604
857329,602
858358,604
859386,604
860415,604
861444,605
862472,605
863501,605
864529,605
865558,605
866586,605
867615,605
868644,605
869672,605
870701,606
871729,606
872758,605
873786,606
874815,606
875844,606
876872,606
877901,605
878929,606
879958,606
880986,607
882015,606
883044,606
884072,606
885101,606
886129,605
887158,605
888186,605
889215,605
890244,605
891272,605
892301,605
893329,604
894358,605
895386,605
896415,605
897444,605
898472,604
899501,605
900529,605
901558,605
902586,604
903615,604
904644,604
905672,604
906701,604
907729,603
908758,603
909786,603
910815,603
911844,603
912872,602
913901,602
914929,602
915958,603
916986,602
918015,602
919044,603
920072,602
921101,603
922129,602
923158,602
924186,602
925215,603
926244,603
927272,603
928301,602
929329,602
930358,602
931386,602
932415,603
933444,603
934472,603
935501,604
936529,604
937558,603
938586,604
939615,604
940644,604
941672,604
942701,604
943729,604
944758,604
945786,604
946815,604
947844,604
948872,603
949901,604
950929,604
951958,603
952986,603
954015,603
955044,603
956072,603
957101,603
958129,604
959158,603
960186,603
961215,603
962244,603
963272,603
964301,602
965329,602
966358,602
967386,603
968415,602
969444,603
970472,602
971501,602
972529,602
973558,603
974586,603
975615,603
976644,603
977672,608
978701,603
979729,602
980758,603
981786,602
982815,602
983844,602
984872,602
985901,602
986929,602
987958,602
988986,602
990015,602
991044,602
992072,603
993101,603
994129,603
995158,603
996186,604
997215,603
998244,603
999272,603
1000301,603
1001415,603
1002529,603
1003644,603
1004758,603
1005872,602
1006986,603
1008101,602
1009215,602
1010329,603
1011444,604
1012558,604
1013672,605
1014786,604
1015901,605
1017015,605
1018129,605
1019244,606
1020358,606
1021472,606
1022586,606
1023701,606
1024815,606
1025929,606
1027044,604
1028158,606
1029272,606
1030386,607
1031501,606
1032615,606
1033729,607
1034844,607
1035958,607
1037072,607
1038186,607
1039301,607
1040415,607
1041529,606
1042644,607
1043758,606
1044872,606
1045986,605
1047101,606
1048215,605
1049329,605
1050444,606
1051558,605
1052672,605
1053786,606
1054901,606
1056015,606
1057129,606
1058244,606
1059358,606
1060472,606
1061586,606
1062701,606
1063815,606
1064929,606
1066044,605
1067158,606
1068272,606
1069386,606
1070501,606
1071615,605
1072729,606
1073844,606
1074958,606
1076072,606
1077186,606
1078301,606
1079415,606
1080529,606
1081644,606
1082758,606
1083872,605
1084986,606
1086101,606
1087215,606
1088329,606
1089444,606
1090558,606
1091672,606
1092786,605
1093901,606
1095015,606
1096129,606
1097244,606
1098358,606
1099472,606
1100586,605
1101701,606
1102815,606
1103929,606
1105044,606
1106158,606
1107272,606
1108386,606
1109501,606
1110615,607
1111729,606
1112844,606
1113958,606
1115072,606
1116186,606
1117301,606
1118415,606
1119529,606
1120644,605
1121758,606
1122872,606
1123986,606
1125101,606
1126215,605
1127329,605
1128444,605
1129558,605
1130672,605
1131786,605
1132901,605
1134015,604
1135129,605
1136244,605
1137358,604
1138472,604
1139586,604
1140701,604
1141815,604
1142929,604
1144044,605
1145158,605
1146272,606
1147386,606
1148501,606
1149615,605
1150729,606
1151844,606
1152958,606
1154072,606
1155186,606
1156301,605
1157415,606
1158529,606
1159644,607
1160758,607
1161872,607
1162986,607
1164101,607
1165215,607
1166329,607
1167444,606
1168558,607
1169672,606
1170786,607
1171901,606
1173015,607
1174129,607
1175244,608
1176358,608
1177472,609
1178586,609
1179701,609
1180815,609
1181929,609
1183044,609
1184158,609
1185272,610
1186386,609
1187501,609
1188615,609
1189729,610
1190844,610
1191958,609
1193072,609
1194186,609
1195301,609
1196415,608
1197529,609
1198644,609
1199758,609
1200872,610
1201986,610
1203101,610
1204215,611
1205329,610
1206444,610
1207558,609
1208672,610
1209786,610
1210901,610
1212015,610
1213129,611
1214244,610
1215358,611
1216472,611
1217586,611
1218701,611
1219815,611
1220929,611
1222044,611
1223158,612
1224272,612
1225386,612
1226501,613
1227615,613
1228729,612
1229844,612
1230958,612
1232072,612
1233186,612
1234301,612
1235415,611
1236529,612
1237644,610
1238758,610
1239872,610
1240986,610
1242101,609
1243215,609
1244329,608
1245444,607
1246558,606
1247672,606
1248786,604
1249901,604
1251015,603
1252129,602
1253244,602
1254358,602
1255472,602
1256586,602
1257701,602
1258815,601
1259929,601
1261044,601
1262158,602
1263272,601
1264386,601
1265501,602
1266615,602
1267729,602
1268844,602
1269958,602
1271072,602
1272186,603
1273301,602
1274415,603
1275529,602
1276644,601
1277758,602
1278872,601
1279986,602
1281101,603
1282215,603
1283329,603
1284444,603
1285558,603
1286672,603
1287786,604
1288901,603
1290015,603
1291129,603
1292244,602
1293358,603
1294472,602
1295586,602
1296701,602
1297815,602
1298929,603
1300044,602
1301158,603
1302272,602
1303386,602
1304501,602
1305615,602
1306729,602
1307844,602
1308958,603
1310072,603
1311186,604
1312301,604
1313415,604
1314529,604
1315644,604
1316758,605
1317872,605
1318986,605
1320101,605
1321215,605
1322329,605
1323444,605
1324558,606
1325672,605
1326786,605
1327901,606
1329015,606
1330129,606
1331244,606
1332358,605
1333472,605
1334586,606
1335701,606
1336815,607
1337929,606
1339044,606
1340158,606
1341272,605
1342386,607
1343501,606
1344615,607
1345729,606
1346844,606
1347958,607
1349072,607
1350186,607
1351301,607
1352415,607
1353529,607
1354644,607
1355758,607
1356872,607
1357986,608
1359101,607
1360215,606
1361329,606
1362444,607
1363558,607
1364672,608
1365786,607
1366901,607
1368015,606
1369129,606
1370244,606
1371358,606
1372472,605
1373586,605
1374701,605
1375815,605
1376929,604
1378044,605
1379158,604
1380272,604
1381386,604
1382501,604
1383615,603
1384729,604
1385844,604
1386958,603
1388072,604
1389186,604
1390301,605
1391415,605
1392529,605
1393644,605
1394758,605
1395872,606
1396986,604
1398101,606
1399215,605
1400329,606
1401444,606
1402558,605
1403672,604
1404786,603
1405901,605
1407015,606
1408129,606
1409244,606
1410358,606
1411472,606
1412586,605
1413701,606
1414815,605
1415929,606
1417044,606
1418158,606
1419272,606
1420386,607
1421501,608
1422615,607
1423729,608
1424844,607
1425958,608
1427072,607
1428186,607
1429301,607
1430415,607
1431529,607
1432644,607
1433758,606
1434872,606
1435986,605
1437101,604
1438215,605
1439329,605
1440444,605
1441558,605
1442672,604
1443786,604
1444901,603
1446015,604
1447129,604
1448244,603
1449358,603
1450472,604
1451586,602
1452701,603
1453815,602
1454929,602
1456044,602
1457158,602
1458272,602
1459386,601
1460501,602
1461615,600
1462729,600
1463844,600
1464958,601
1466072,600
1467186,600
1468301,600
1469415,600
1470529,601
1471644,601
1472758,600
1473872,601
1474986,601
1476101,602
1477215,601
1478329,602
1479444,602
1480558,601
1481672,602
1482786,602
1483901,602
1485015,602
1486129,602
1487244,602
1488358,602
1489472,602
1490586,602
1491701,602
1492815,602
1493929,602
1495044,601
1496158,601
1497272,601
1498386,601
1499501,601
1500615,601
1501729,602
1502844,602
1503958,602
1505072,602
1506186,602
1507301,602
1508415,601
1509529,602
1510644,602
1511758,602
1512872,602
1513986,603
1515101,603
1516215,603
1517329,603
1518444,603
1519558,604
1520672,605
1521786,604
1522901,604
1524015,605
1525129,605
1526244,605
1527358,604
1528472,605
1529586,605
1530701,604
1531815,604
1532929,604
1534044,604
1535158,604
1536272,604
1537386,604
1538501,605
1539615,604
1540729,604
1541844,604
1542958,605
1544072,604
1545186,604
1546301,604
1547415,604
1548529,603
1549644,604
1550758,604
1551872,604
1552986,604
1554101,605
1555215,605
1556329,605
1557444,605
1558558,605
1559672,605
1560786,607
1561901,605
1563015,606
1564129,605
1565244,605
1566358,604
1567472,605
1568586,606
1569701,605
1570815,606
1571929,606
1573044,606
1574158,606
1575272,606
1576386,609
1577501,606
1578615,606
1579729,606
1580844,606
1581958,606
1583072,606
1584186,606
1585301,606
1586415,607
1587529,607
1588644,607
1589758,607
1590872,607
1591986,607
1593101,607
1594215,607
1595329,607
1596444,607
1597558,607
1598672,607
1599786,608
1600901,608
1602015,608
1603129,608
1604244,609
1605358,607
1606472,608
1607586,609
1608701,608
1609815,608
1610929,608
1612044,609
1613158,609
1614272,609
1615386,609
1616501,609
1617615,609
1618729,609
1619844,608
1620958,608
1622072,607
1623186,609
1624301,609
1625415,608
1626529,608
1627644,608
1628758,608
1629872,609
1630986,608
1632101,608
1633215,608
1634329,608
1635444,609
1636558,608
1637672,608
1638786,608
1639901,608
1641015,608
1642129,608
1643244,608
1644358,608
1645472,608
1646586,608
1647701,608
1648815,608
1649929,608
1651044,608
1652158,608
1653272,608
1654386,608
1655501,608
1656615,608
1657729,608
1658844,608
1659958,608
1661072,608
1662186,608
1663301,608
1664415,607
1665529,607
1666644,607
1667758,607
1668872,607
1669986,607
1671101,606
1672215,606
1673329,606
1674444,606
1675558,607
1676672,607
1677786,607
1678901,607
1680015,607
1681129,607
1682244,607
1683358,608
1684472,608
1685586,608
1686701,608
1687815,608
1688929,609
1690044,608
1691158,609
1692272,609
1693386,609
1694501,609
1695615,610
1696729,609
1697844,609
1698958,609
1700072,609
1701186,610
1702301,610
1703415,610
1704529,609
1705644,610
1706758,610
1707872,610
1708986,611
1710101,611
1711215,612
1712329,612
1713444,612
1714558,612
1715672,612
1716786,612
1717901,613
1719015,612
1720129,613
1721244,612
1722358,612
1723472,612
1724586,612
1725701,612
1726815,612
1727929,612
1729044,613
1730158,612
1731272,611
1732386,612
1733501,610
1734615,611
1735729,611
1736844,611
1737958,610
1739072,610
1740186,610
1741301,609
1742415,608
1743529,609
1744644,608
1745758,608
1746872,607
1747986,607
1749101,607
1750215,607
1751329,606
1752444,607
1753558,605
1754672,605
1755786,605
1756901,604
1758015,604
1759129,604
1760244,603
1761358,603
1762472,603
1763586,603
1764701,603
1765815,603
1766929,603
1768044,603
1769158,603
1770272,603
1771386,603
1772501,605
1773615,603
1774729,603
1775844,602
1776958,603
1778072,602
1779186,603
1780301,603
1781415,603
1782529,602
1783644,603
1784758,604
1785872,603
1786986,603
1788101,603
1789215,603
1790329,603
1791444,603
1792558,602
1793672,604
1794786,604
1795901,604
1797015,604
1798129,603
1799244,604
1800358,604
1801472,604
1802586,604
1803701,604
1804815,603
1805929,604
1807044,604
1808158,603
1809272,603
1810386,603
1811501,602
1812615,602
1813729,602
1814844,602
1815958,602
1817072,602
1818186,602
1819301,601
1820415,602
1821529,602
1822644,602
1823758,603
1824872,601
1825986,602
1827101,603
1828215,603
1829329,603
1830444,603
1831558,603
1832672,604
1833786,604
1834901,604
1836015,604
1837129,604
1838244,604
1839358,605
1840472,604
1841586,604
1842701,604
1843815,603
1844929,603
1846044,603
1847158,603
1848272,602
1849386,603
1850501,603
1851615,601
1852729,602
1853844,602
1854958,602
1856072,602
1857186,602
1858301,603
1859415,603
1860529,603
1861644,602
1862758,602
1863872,603
1864986,602
1866101,602
1867215,603
1868329,603
1869444,603
1870558,602
1871672,602
1872786,602
1873901,603
1875015,603
1876129,603
1877244,604
1878358,603
1879472,603
1880586,604
1881701,604
1882815,604
1883929,604
1885044,604
1886158,604
1887272,604
1888386,604
1889501,604
1890615,604
1891729,604
1892844,603
1893958,604
1895072,605
1896186,605
1897301,605
1898415,605
1899529,605
1900644,603
1901758,605
1902872,604
1903986,605
1905101,605
1906215,605
1907329,605
1908444,605
1909558,605
1910672,605
1911786,605
1912901,605
1914015,605
1915129,606
1916244,605
1917358,605
1918472,605
1919586,605
1920701,605
1921815,605
1922929,605
1924044,605
1925158,604
1926272,606
1927386,605
1928501,605
1929615,605
1930729,605
1931844,605
1932958,606
1934072,605
1935186,605
1936301,605
1937415,603
1938529,605
1939644,606
1940758,605
1941872,605
1942986,605
1944101,606
1945215,605
1946329,605
1947444,605
1948558,606
1949672,606
1950786,606
1951901,606
1953015,606
1954129,606
1955244,606
1956358,606
1957472,606
1958586,606
1959701,606
1960815,606
1961929,606
1963044,606
1964158,606
1965272,606
1966386,607
1967501,607
1968615,606
1969729,606
1970844,607
1971958,607
1973072,607
1974186,607
1975301,607
1976415,605
1977529,606
1978644,606
1979758,605
1980872,605
1981986,605
1983101,605
1984215,606
1985329,605
1986444,605
1987558,606
1988672,606
1989786,605
1990901,606
1992015,605
1993129,606
1994244,605
1995358,606
1996472,606
1997586,606
1998701,606
1999815,606
2000929,606
2002044,606
2003158,606
2004272,606
2005386,606
2006501,606
2007615,606
2008729,606
2009844,604
2010958,606
2012072,606
2013186,607
2014301,606
2015415,606
2016529,606
2017644,606
2018758,608
2019872,606
2020986,606
2022101,606
2023215,606
2024329,606
2025444,606
2026558,606
2027672,605
2028786,606
2029901,606
2031015,607
2032129,606
2033244,606
2034358,606
2035472,606
2036586,606
2037701,606
2038815,606
2039929,605
2041044,606
2042158,606
2043272,605
2044386,605
2045501,605
2046615,605
2047729,605
2048844,602
2049958,605
2051072,605
2052186,605
2053301,605
2054415,604
2055529,604
2056644,604
2057758,604
2058872,604
2059986,604
2061101,604
2062215,604
2063329,605
2064444,604
2065558,604
2066672,604
2067786,603
2068901,604
2070015,605
2071129,604
2072244,604
2073358,604
2074472,604
2075586,604
2076701,605
2077815,604
2078929,604
2080044,604
2081158,604
2082272,604
2083386,604
2084501,604
2085615,604
2086729,604
2087844,605
2088958,604
2090072,605
2091186,604
2092301,604
2093415,604
2094529,604
2095644,604
2096758,605
2097872,604
2098986,604
2100101,604
2101215,603
2102329,604
2103444,604
2104558,605
2105672,605
2106786,605
2107901,605
2109015,605
2110129,606
2111244,606
2112358,605
2113472,605
2114586,606
2115701,606
2116815,606
2117929,606
2119044,605
2120158,605
2121272,606
2122386,605
2123501,605
2124615,605
2125729,605
2126844,605
2127958,605
2129072,605
2130186,605
2131301,605
2132415,605
2133529,605
2134644,605
2135758,605
2136872,605
2137986,605
2139101,605
2140215,605
2141329,605
2142444,605
2143558,605
2144672,607
2145786,605
2146901,606
2148015,606
2149129,606
2150244,606
2151358,606
2152472,606
2153586,606
2154701,606
2155815,607
2156929,607
2158044,607
2159158,607
2160272,607
2161386,607
2162501,607
2163615,607
2164729,607
2165844,607
2166958,607
2168072,607
2169186,607
2170301,607
2171415,607
2172529,607
2173644,607
2174758,607
2175872,606
2176986,606
2178101,607
2179215,606
2180329,606
2181444,606
2182558,605
2183672,606
2184786,606
2185901,605
2187015,605
2188129,605
2189244,606
2190358,606
2191472,606
2192586,605
2193701,605
2194815,605
2195929,605
2197044,605
2198158,605
2199272,606
2200386,606
2201501,606
2202615,606
2203729,606
2204844,606
2205958,606
2207072,606
2208186,606
2209301,606
2210415,606
2211529,606
2212644,606
2213758,606
2214872,606
2215986,606
2217101,605
2218215,605
2219329,605
2220444,605
2221558,605
2222672,605
2223786,605
2224901,605
2226015,605
2227129,606
2228244,605
2229358,604
2230472,605
2231586,605
2232701,604
2233815,605
2234929,604
2236044,605
2237158,604
2238272,605
2239386,604
2240501,604
2241615,604
2242729,604
2243844,605
2244958,605
2246072,605
2247186,605
2248301,605
2249415,604
2250529,605
2251644,605
2252758,604
2253872,604
2254986,604
2256101,605
2257215,604
2258329,605
2259444,605
2260558,604
2261672,604
2262786,604
2263901,604
2265015,605
2266129,605
2267244,604
2268358,605
2269472,604
2270586,604
2271701,604
2272815,604
2273929,604
2275044,604
2276158,604
2277272,604
2278386,604
2279501,604
2280615,604
2281729,604
2282844,604
2283958,604
2285072,604
2286186,605
2287301,604
2288415,605
2289529,604
2290644,604
2291758,604
2292872,604
2293986,605
2295101,605
2296215,605
2297329,604
2298444,605
2299558,605
2300672,605
2301786,605
2302901,605
2304015,605
2305129,605
2306244,605
2307358,605
2308472,605
2309586,605
2310701,605
2311815,605
2312929,605
2314044,605
2315158,605
2316272,605
2317386,605
2318501,605
2319615,605
2320729,605
2321844,604
2322958,605
2324072,605
2325186,605
2326301,605
2327415,605
2328529,603
2329644,605
2330758,606
2331872,606
2332986,606
2334101,606
2335215,607
2336329,607
2337444,607
2338558,606
2339672,606
2340786,606
2341901,606
2343015,606
2344129,605
2345244,605
2346358,605
2347472,605
2348586,605
2349701,605
2350815,605
2351929,605
2353044,605
2354158,606
2355272,606
2356386,605
2357501,605
2358615,605
2359729,605
2360844,605
2361958,606
2363072,605
2364186,605
2365301,605
2366415,605
2367529,605
2368644,605
2369758,605
2370872,605
2371986,605
2373101,605
2374215,605
2375329,606
2376444,605
2377558,605
2378672,605
2379786,605
2380901,605
2382015,605
2383129,605
2384244,605
2385358,605
2386472,606
2387586,606
2388701,606
2389815,605
2390929,606
2392044,606
2393158,606
2394272,607
2395386,607
2396501,607
2397615,607
2398729,605
2399844,607
2400958,606
2402072,606
2403186,606
2404301,605
2405415,606
2406529,606
2407644,607
2408758,607
2409872,607
2410986,607
2412101,607
2413215,608
2414329,608
2415444,608
2416558,608
2417672,608
2418786,608
2419901,607
2421015,606
2422129,606
2423244,606
2424358,606
2425472,606
2426586,607
2427701,607
2428815,607
2429929,607
2431044,607
2432158,608
2433272,607
2434386,608
2435501,607
2436615,608
2437729,608
2438844,607
2439958,608
2441072,607
2442186,608
2443301,608
2444415,608
2445529,607
2446644,608
2447758,608
2448872,608
2449986,608
2451101,608
2452215,608
2453329,606
2454444,609
2455558,609
2456672,609
2457786,609
2458901,609
2460015,609
2461129,609
2462244,608
2463358,608
2464472,608
2465586,608
2466701,609
2467815,609
2468929,608
2470044,608
2471158,608
2472272,608
2473386,608
2474501,608
2475615,608
2476729,607
2477844,608
2478958,608
2480072,607
2481186,607
2482301,607
2483415,607
2484529,607
2485644,608
2486758,607
2487872,607
2488986,607
2490101,608
2491215,607
2492329,608
2493444,608
2494558,607
2495672,607
2496786,607
2497901,608
2499015,607
2500129,607
2501244,607
2502358,606
2503472,607
2504586,607
2505701,607
2506815,607
2507929,607
2509044,607
2510158,607
2511272,607
2512386,607
2513501,608
2514615,607
2515729,607
2516844,607
2517958,608
2519072,607
2520186,608
2521301,609
2522415,608
2523529,608
2524644,607
2525758,607
2526872,608
2527986,607
2529101,608
2530215,607
2531329,607
2532444,607
2533558,607
2534672,607
2535786,607
2536901,607
2538015,607
2539129,606
2540244,608
2541358,606
2542472,606
2543586,606
2544701,606
2545815,607
2546929,606
2548044,605
2549158,606
2550272,607
2551386,607
2552501,608
2553615,607
2554729,607
2555844,607
2556958,608
2558072,607
2559186,607
2560301,607
2561415,607
2562529,608
2563644,608
2564758,608
2565872,607
2566986,608
2568101,607
2569215,607
2570329,608
2571444,607
2572558,608
2573672,608
2574786,607
2575901,607
2577015,608
2578129,607
2579244,608
2580358,607
2581472,608
2582586,608
2583701,606
2584815,607
2585929,608
2587044,608
2588158,607
2589272,607
2590386,607
2591501,607
2592615,607
2593729,607
2594844,607
2595958,607
2597072,608
2598186,607
2599301,607
2600415,607
2601529,607
2602644,607
2603758,607
2604872,607
2605986,607
2607101,607
2608215,607
2609329,607
2610444,606
2611558,606
2612672,604
2613786,606
2614901,605
2616015,604
2617129,604
2618244,604
2619358,604
2620472,603
2621586,603
2622701,602
2623815,603
2624929,601
2626044,601
2627158,601
2628272,601
2629386,601
2630501,600
2631615,600
2632729,600
2633844,600
2634958,599
2636072,599
2637186,599
2638301,598
2639415,598
2640529,598
2641644,597
2642758,596
2643872,597
2644986,596
2646101,595
2647215,595
2648329,595
2649444,595
2650558,595
2651672,594
2652786,593
2653901,594
2655015,593
2656129,593
2657244,592
2658358,593
2659472,591
2660586,593
2661701,592
2662815,592
2663929,592
2665044,591
2666158,591
2667272,591
2668386,591
2669501,591
2670615,591
2671729,591
2672844,590
2673958,591
2675072,590
2676186,590
2677301,590
2678415,591
2679529,590
2680644,591
2681758,591
2682872,590
2683986,590
2685101,591
2686215,591
2687329,590
2688444,590
2689558,590
2690672,590
2691786,590
2692901,590
2694015,590
2695129,591
2696244,591
2697358,592
2698472,590
2699586,591
2700701,591
2701815,592
2702929,591
2704044,591
2705158,592
2706272,592
2707386,591
2708501,591
2709615,590
2710729,590
2711844,590
2712958,590
2714072,590
2715186,589
2716301,589
2717415,589
2718529,590
2719644,590
2720758,589
2721872,589
2722986,588
2724101,588
2725215,588
2726329,587
2727444,588
2728558,587
2729672,588
2730786,587
2731901,587
2733015,587
2734129,588
2735244,584
2736358,588
2737472,588
2738586,589
2739701,589
2740815,590
2741929,591
2743044,591
2744158,592
2745272,592
2746386,594
2747501,595
2748615,595
2749729,596
2750844,597
2751958,596
2753072,597
2754186,597
2755301,598
2756415,597
2757529,599
2758644,600
2759758,601
2760872,601
2761986,601
2763101,602
2764215,603
2765329,602
2766444,603
2767558,603
2768672,604
2769786,605
2770901,606
2772015,606
2773129,606
2774244,606
2775358,606
2776472,607
2777586,607
2778701,608
2779815,608
2780929,608
2782044,608
2783158,609
2784272,609
2785386,609
2786501,609
2787615,608
2788729,609
2789844,610
2790958,610
2792072,611
2793186,611
2794301,611
2795415,609
2796529,612
2797644,611
2798758,611
2799872,612
2800986,612
2802101,611
2803215,612
2804329,613
2805444,613
2806558,613
2807672,613
2808786,613
2809901,613
2811015,613
2812129,612
2813244,613
2814358,612
2815472,612
2816586,613
2817701,613
2818815,613
2819929,614
2821044,613
2822158,613
2823272,614
2824386,613
2825501,613
2826615,613
2827729,614
2828844,615
2829958,614
2831072,615
2832186,616
2833301,616
2834415,616
2835529,616
2836644,615
2837758,615
2838872,615
2839986,612
2841101,613
2842215,613
2843329,614
2844444,614
2845558,613
2846672,613
2847786,611
2848901,614
2850015,613
2851129,615
2852244,613
2853358,613
2854472,613
2855586,614
2856701,614
2857815,614
2858929,614
2860044,613
2861158,613
2862272,613
2863386,613
2864501,613
2865615,613
2866729,613
2867844,613
2868958,614
2870072,613
2871186,614
2872301,614
2873415,614
2874529,614
2875644,614
2876758,615
2877872,615
2878986,614
2880101,615
2881215,615
2882329,614
2883444,615
2884558,614
2885672,614
2886786,613
2887901,614
2889015,613
2890129,612
2891244,612
2892358,612
2893472,612
2894586,612
2895701,611
2896815,611
2897929,611
2899044,611
2900158,612
2901272,612
2902386,612
2903501,612
2904615,612
2905729,612
2906844,612
2907958,612
2909072,612
2910186,612
2911301,612
2912415,612
2913529,611
2914644,611
2915758,611
2916872,611
2917986,610
2919101,611
2920215,610
2921329,611
2922444,611
2923558,610
2924672,611
2925786,610
2926901,611
2928015,611
2929129,611
2930244,611
2931358,611
2932472,611
2933586,610
2934701,610
2935815,610
2936929,610
2938044,610
2939158,610
2940272,610
2941386,611
2942501,611
2943615,610
2944729,611
2945844,611
2946958,611
2948072,612
2949186,613
2950301,612
2951415,612
2952529,612
2953644,612
2954758,612
2955872,612
2956986,612
2958101,611
2959215,611
2960329,611
2961444,612
2962558,612
2963672,611
2964786,611
2965901,611
2967015,611
2968129,611
2969244,611
2970358,611
2971472,611
2972586,611
2973701,610
2974815,611
2975929,611
2977044,611
2978158,611
2979272,612
2980386,611
2981501,610
2982615,610
2983729,610
2984844,612
2985958,611
2987072,611
2988186,611
2989301,611
2990415,610
2991529,611
2992644,611
2993758,610
2994872,611
2995986,611
2997101,610
2998215,610
2999329,609
3000444,609
3001558,609
3002672,608
3003786,608
3004901,608
3006015,607
3007129,607
3008244,606
3009358,606
3010472,606
3011586,604
3012701,606
3013815,607
3014929,605
3016044,606
3017158,606
3018272,605
3019386,606
3020501,605
3021615,605
3022729,606
3023844,606
3024958,606
3026072,606
3027186,606
3028301,607
3029415,607
3030529,607
3031644,607
3032758,609
3033872,608
3034986,607
3036101,607
3037215,608
3038329,607
3039444,608
3040558,608
3041672,608
3042786,607
3043901,608
3045015,607
3046129,608
3047244,608
3048358,608
3049472,608
3050586,608
3051701,608
3052815,608
3053929,608
3055044,608
3056158,608
3057272,608
3058386,608
3059501,608
3060615,608
3061729,608
3062844,608
3063958,609
3065072,609
3066186,609
3067301,609
3068415,609
3069529,607
3070644,609
3071758,609
3072872,609
3073986,610
3075101,609
3076215,609
3077329,609
3078444,609
3079558,610
3080672,609
3081786,609
3082901,610
3084015,609
3085129,611
3086244,610
3087358,610
3088472,610
3089586,609
3090701,610
3091815,610
3092929,609
3094044,610
3095158,609
3096272,609
3097386,609
3098501,609
3099615,609
3100729,609
3101844,609
3102958,610
3104072,609
3105186,610
3106301,610
3107415,610
3108529,609
3109644,609
3110758,608
3111872,609
3112986,609
3114101,608
3115215,611
3116329,610
3117444,609
3118558,609
3119672,608
3120786,609
3121901,608
3123015,608
3124129,608
3125244,608
3126358,608
3127472,608
3128586,609
3129701,609
3130815,609
3131929,608
3133044,609
3134158,609
3135272,609
3136386,609
3137501,609
3138615,609
3139729,609
3140844,609
3141958,609
3143072,608
3144186,608
3145301,608
3146415,608
3147529,608
3148644,608
3149758,608
3150872,608
3151986,608
3153101,609
3154215,608
3155329,608
3156444,608
3157558,608
3158672,607
3159786,608
3160901,607
3162015,607
3163129,608
3164244,608
3165358,609
3166472,608
3167586,609
3168701,608
3169815,608
3170929,607
3172044,607
3173158,608
3174272,609
3175386,608
3176501,608
3177615,607
3178729,607
3179844,607
3180958,607
3182072,606
3183186,605
3184301,605
3185415,604
3186529,604
3187644,603
3188758,603
3189872,601
3190986,601
3192101,600
3193215,600
3194329,599
3195444,599
3196558,598
3197672,598
3198786,598
3199901,597
3201015,596
3202129,598
3203244,596
3204358,597
3205472,597
3206586,597
3207701,596
3208815,597
3209929,597
3211044,597
3212158,597
3213272,596
3214386,597
3215501,597
3216615,597
3217729,596
3218844,597
3219958,595
3221072,596
3222186,595
3223301,595
3224415,595
3225529,595
3226644,593
3227758,593
3228872,592
3229986,592
3231101,592
3232215,591
3233329,591
3234444,590
3235558,590
3236672,590
3237786,590
3238901,590
3240015,590
3241129,590
3242244,590
3243358,590
3244472,590
3245586,590
3246701,591
3247815,591
3248929,591
3250044,591
3251158,591
3252272,591
3253386,592
3254501,591
3255615,593
3256729,592
3257844,592
3258958,592
3260072,592
3261186,592
3262301,592
3263415,592
3264529,592
3265644,592
3266758,592
3267872,593
3268986,593
3270101,593
3271215,592
3272329,593
3273444,593
3274558,593
3275672,594
3276786,594
3277901,593
3279015,594
3280129,593
3281244,593
3282358,594
3283472,593
3284586,593
3285701,594
3286815,594
3287929,594
3289044,594
3290158,595
3291272,594
3292386,595
3293501,595
3294615,596
3295729,596
3296844,595
3297958,595
3299072,595
3300186,594
3301301,594
3302415,595
3303529,594
3304644,594
3305758,594
3306872,594
3307986,594
3309101,595
3310215,594
3311329,594
3312444,594
3313558,594
3314672,594
3315786,595
3316901,595
3318015,595
3319129,595
3320244,596
3321358,597
3322472,595
3323586,595
3324701,596
3325815,595
3326929,595
3328044,595
3329158,596
3330272,595
3331386,596
3332501,596
3333615,595
3334729,597
3335844,597
3336958,596
3338072,596
3339186,596
3340301,596
3341415,597
3342529,597
3343644,595
3344758,596
3345872,596
3346986,596
3348101,596
3349215,596
3350329,596
3351444,595
3352558,595
3353672,595
3354786,595
3355901,595
3357015,594
3358129,594
3359244,594
3360358,594
3361472,594
3362586,594
3363701,594
3364815,594
3365929,596
3367044,595
3368158,593
3369272,594
3370386,594
3371501,594
3372615,594
3373729,594
3374844,594
3375958,594
3377072,593
3378186,593
3379301,595
3380415,594
3381529,593
3382644,593
3383758,593
3384872,593
3385986,593
3387101,594
3388215,593
3389329,593
3390444,593
3391558,593
3392672,593
3393786,593
3394901,593
3396015,592
3397129,593
3398244,593
3399358,592
3400472,593
3401586,592
3402701,592
3403815,593
3404929,593
3406044,594
3407158,594
3408272,595
3409386,595
3410501,596
3411615,597
3412729,597
3413844,598
3414958,598
3416072,599
3417186,600
3418301,601
3419415,601
3420529,602
3421644,602
3422758,604
3423872,604
3424986,604
3426101,605
3427215,606
3428329,606
3429444,606
3430558,607
3431672,606
3432786,606
3433901,606
3435015,606
3436129,607
3437244,606
3438358,606
3439472,607
3440586,607
3441701,606
3442815,607
3443929,608
3445044,607
3446158,607
3447272,607
3448386,607
3449501,607
3450615,607
3451729,607
3452844,607
3453958,608
3455072,609
3456186,607
3457301,606
3458415,606
3459529,607
3460644,606
3461758,606
3462872,606
3463986,606
3465101,606
3466215,607
3467329,606
3468444,606
3469558,605
3470672,606
3471786,606
3472901,606
3474015,606
3475129,606
3476244,606
3477358,605
3478472,607
3479586,607
3480701,606
3481815,607
3482929,606
3484044,606
3485158,605
3486272,607
3487386,608
3488501,607
3489615,607
3490729,607
3491844,607
3492958,607
3494072,607
3495186,607
3496301,608
3497415,607
3498529,607
3499644,607
3500758,607
3501872,606
3502986,607
3504101,607
3505215,606
3506329,606
3507444,606
3508558,606
3509672,605
3510786,606
3511901,606
3513015,606
3514129,606
3515244,606
3516358,606
3517472,607
3518586,606
3519701,606
3520815,606
3521929,606
3523044,606
3524158,606
3525272,606
3526386,605
3527501,606
3528615,606
3529729,607
3530844,607
3531958,607
3533072,607
3534186,607
3535301,607
3536415,607
3537529,607
3538644,607
3539758,608
3540872,608
3541986,607
3543101,607
3544215,606
3545329,607
3546444,606
3547558,606
3548672,607
3549786,606
3550901,606
3552015,607
3553129,606
3554244,605
3555358,606
3556472,606
3557586,605
3558701,605
3559815,605
3560929,605
3562044,605
3563158,605
3564272,605
3565386,605
3566501,605
3567615,605
3568729,605
3569844,604
3570958,607
3572072,606
3573186,606
3574301,606
3575415,605
3576529,606
3577644,605
3578758,605
3579872,605
3580986,605
3582101,605
3583215,605
3584329,605
3585444,605
3586558,605
3587672,605
3588786,604
3589901,604
3591015,604
3592129,604
3593244,605
3594358,605
3595472,605
3596586,605
3597701,605
3598815,605
3599929,606
3601044,605
3602158,605
3603272,605
3604386,605
3605501,605
3606615,604
3607729,604
3608844,605
3609958,603
3611072,604
3612186,605
3613301,604
3614415,604
3615529,604
3616644,604
3617758,604
3618872,604
3619986,604
3621101,604
3622215,603
3623329,604
3624444,603
3625558,603
3626672,603
3627786,604
3628901,603
3630015,603
3631129,604
3632244,603
3633358,603
3634472,604
3635586,603
3636701,603
3637815,603
3638929,604
3640044,604
3641158,604
3642272,604
3643386,604
3644501,603
3645615,604
3646729,603
3647844,604
3648958,604
3650072,603
3651186,604
3652301,604
3653415,604
3654529,604
3655644,605
3656758,604
3657872,604
3658986,603
3660101,603
3661215,603
3662329,603
3663444,604
3664558,603
3665672,604
3666786,603
3667901,603
3669015,602
3670129,602
3671244,602
3672358,603
3673472,603
3674586,603
3675701,603
3676815,603
3677929,603
3679044,603
3680158,603
3681272,603
3682386,603
3683501,603
3684615,603
3685729,603
3686844,603
3687958,604
3689072,603
3690186,604
3691301,605
3692415,604
3693529,604
3694644,604
3695758,605
3696872,605
3697986,605
3699101,605
3700215,605
3701329,605
3702444,606
3703558,606
3704672,607
3705786,607
3706901,607
3708015,607
3709129,608
3710244,607
3711358,608
3712472,608
3713586,608
3714701,608
3715815,607
3716929,608
3718044,608
3719158,608
3720272,608
3721386,608
3722501,608
3723615,608
3724729,608
3725844,608
3726958,608
3728072,608
3729186,608
3730301,608
3731415,608
3732529,608
3733644,608
3734758,607
3735872,607
3736986,607
3738101,607
3739215,607
3740329,607
3741444,607
3742558,606
3743672,606
3744786,606
3745901,606
3747015,606
3748129,606
3749244,606
3750358,605
3751472,604
3752586,605
3753701,605
3754815,604
3755929,605
3757044,605
3758158,605
3759272,604
3760386,605
3761501,605
3762615,605
3763729,604
3764844,604
3765958,605
3767072,605
3768186,604
3769301,605
3770415,605
3771529,605
3772644,605
3773758,605
3774872,605
3775986,605
3777101,605
3778215,604
3779329,604
3780444,604
3781558,603
3782672,604
3783786,604
3784901,604
3786015,604
3787129,604
3788244,604
3789358,604
3790472,603
3791586,603
3792701,603
3793815,603
3794929,603
3796044,603
3797158,603
3798272,603
3799386,602
3800501,603
3801615,603
3802729,602
3803844,603
3804958,602
3806072,603
3807186,603
3808301,602
3809415,603
3810529,603
3811644,602
3812758,603
3813872,603
3814986,603
3816101,605
3817215,603
3818329,604
3819444,603
3820558,603
3821672,604
3822786,604
3823901,604
3825015,604
3826129,605
3827244,605
3828358,604
3829472,606
3830586,607
3831701,606
3832815,607
3833929,607
3835044,607
3836158,607
3837272,608
3838386,608
3839501,608
3840615,608
3841729,609
3842844,608
3843958,609
3845072,609
3846186,609
3847301,608
3848415,609
3849529,608
3850644,609
3851758,609
3852872,609
3853986,608
3855101,608
3856215,608
3857329,608
3858444,609
3859558,609
3860672,608
3861786,607
3862901,608
3864015,608
3865129,608
3866244,608
3867358,608
3868472,609
3869586,608
3870701,609
3871815,608
3872929,608
3874044,607
3875158,608
3876272,608
3877386,608
3878501,608
3879615,607
3880729,607
3881844,606
3882958,608
3884072,607
3885186,607
3886301,607
3887415,606
3888529,606
3889644,607
3890758,606
3891872,607
3892986,606
3894101,605
3895215,605
3896329,606
3897444,605
3898558,606
3899672,606
3900786,606
3901901,606
3903015,606
3904129,607
3905244,607
3906358,607
3907472,606
3908586,607
3909701,607
3910815,607
3911929,607
3913044,607
3914158,607
3915272,608
3916386,608
3917501,607
3918615,608
3919729,608
3920844,608
3921958,608
3923072,608
3924186,608
3925301,608
3926415,608
3927529,608
3928644,608
3929758,607
3930872,607
3931986,607
3933101,607
3934215,606
3935329,607
3936444,607
3937558,607
3938672,608
3939786,607
3940901,608
3942015,608
3943129,608
3944244,608
3945358,609
3946472,609
3947586,609
3948701,609
3949815,609
3950929,609
3952044,608
3953158,608
3954272,608
3955386,608
3956501,609
3957615,608
3958729,608
3959844,608
3960958,608
3962072,607
3963186,606
3964301,606
3965415,606
3966529,606
3967644,606
3968758,606
3969872,605
3970986,605
3972101,604
3973215,604
3974329,604
3975444,604
3976558,603
3977672,603
3978786,603
3979901,603
3981015,603
3982129,603
3983244,603
3984358,603
3985472,602
3986586,602
3987701,602
3988815,603
3989929,602
3991044,601
3992158,600
3993272,601
3994386,602
3995501,601
3996615,601
3997729,601
3998844,601
3999958,601
4001072,601
4002186,601
4003301,601
4004415,601
4005529,601
4006644,602
4007758,601
4008872,601
4009986,601
4011101,600
4012215,601
4013329,601
4014444,601
4015558,602
4016672,602
4017786,603
4018901,603
4020015,603
4021129,604
4022244,604
4023358,605
4024472,605
4025586,606
4026701,606
4027815,607
4028929,607
4030044,608
4031158,608
4032272,609
4033386,609
4034501,610
4035615,610
4036729,610
4037844,610
4038958,611
4040072,612
4041186,611
4042301,611
4043415,611
4044529,611
4045644,611
4046758,612
4047872,612
4048986,612
4050101,612
4051215,612
4052329,612
4053444,612
4054558,610
4055672,612
4056786,612
4057901,612
4059015,612
4060129,612
4061244,612
4062358,612
4063472,613
4064586,613
4065701,613
4066815,613
4067929,613
4069044,612
4070158,613
4071272,613
4072386,612
4073501,613
4074615,612
4075729,612
4076844,612
4077958,612
4079072,612
4080186,612
4081301,612
4082415,612
4083529,611
4084644,612
4085758,611
4086872,612
4087986,612
4089101,612
4090215,612
4091329,612
4092444,611
4093558,611
4094672,611
4095786,611
4096901,611
4098015,611
4099129,611
4100244,611
4101358,611
4102472,611
4103586,611
4104701,608
4105815,610
4106929,610
4108044,610
4109158,610
4110272,610
4111386,610
4112501,610
4113615,611
4114729,610
4115844,610
4116958,610
4118072,610
4119186,609
4120301,610
4121415,609
4122529,609
4123644,610
4124758,609
4125872,610
4126986,610
4128101,611
4129215,610
4130329,610
4131444,610
4132558,610
4133672,610
4134786,610
4135901,610
4137015,610
4138129,610
4139244,610
4140358,609
4141472,609
4142586,609
4143701,608
4144815,610
4145929,609
4147044,610
4148158,609
4149272,609
4150386,610
4151501,610
4152615,609
4153729,609
4154844,609
4155958,610
4157072,610
4158186,610
4159301,611
4160415,611
4161529,610
4162644,610
4163758,610
4164872,610
4165986,610
4167101,610
4168215,610
4169329,610
4170444,610
4171558,609
4172672,609
4173786,610
4174901,609
4176015,609
4177129,609
4178244,609
4179358,609
4180472,608
4181586,608
4182701,610
4183815,608
4184929,608
4186044,608
4187158,608
4188272,608
4189386,608
4190501,609
4191615,609
4192729,609
4193844,609
4194958,609
4196072,609
4197186,609
4198301,609
4199415,609
4200529,609
4201644,608
4202758,609
4203872,609
4204986,609
4206101,609
4207215,609
4208329,609
4209444,609
4210558,609
4211672,610
4212786,609
4213901,610
4215015,609
4216129,609
4217244,609
4218358,610
4219472,609
4220586,609
4221701,609
4222815,609
4223929,609
4225044,609
4226158,609
4227272,609
4228386,609
4229501,609
4230615,609
4231729,609
4232844,609
4233958,609
4235072,609
4236186,609
4237301,609
4238415,609
4239529,609
4240644,609
4241758,609
4242872,609
4243986,609
4245101,609
4246215,609
4247329,610
4248444,610
4249558,609
4250672,610
4251786,610
4252901,611
4254015,610
4255129,610
4256244,611
4257358,611
4258472,611
4259586,610
4260701,611
4261815,611
4262929,612
4264044,610
4265158,611
4266272,611
4267386,611
4268501,612
4269615,611
4270729,611
4271844,611
4272958,612
4274072,611
4275186,611
4276301,612
4277415,611
4278529,611
4279644,611
4280758,610
4281872,611
4282986,611
4284101,611
4285215,611
4286329,611
4287444,611
4288558,611
4289672,611
4290786,611
4291901,611
4293015,611
4294129,611
4295244,611
4296358,611
4297472,611
4298586,611
4299701,611
4300815,612
4301929,611
4303044,612
4304158,612
4305272,612
4306386,612
4307501,612
4308615,612
4309729,612
4310844,613
4311958,612
4313072,613
4314186,613
4315301,613
4316415,613
4317529,613
4318644,614
4319758,613
4320872,614
4321986,613
4323101,614
4324215,614
4325329,614
4326444,614
4327558,615
4328672,616
4329786,615
4330901,615
4332015,615
4333129,615
4334244,615
4335358,615
4336472,615
4337586,615
4338701,614
4339815,614
4340929,615
4342044,614
4343158,614
4344272,614
4345386,613
4346501,614
4347615,613
4348729,613
4349844,613
4350958,613
4352072,613
4353186,613
4354301,613
4355415,613
4356529,612
4357644,612
4358758,613
4359872,612
4360986,612
4362101,612
4363215,611
4364329,610
4365444,610
4366558,610
4367672,610
4368786,609
4369901,609
4371015,608
4372129,608
4373244,607
4374358,608
4375472,607
4376586,607
4377701,608
4378815,607
4379929,607
4381044,607
4382158,608
4383272,605
4384386,607
4385501,607
4386615,608
4387729,608
4388844,608
4389958,607
4391072,607
4392186,608
4393301,607
4394415,607
4395529,606
4396644,606
4397758,606
4398872,606
4399986,605
4401101,605
4402215,605
4403329,605
4404444,605
4405558,605
4406672,605
4407786,605
4408901,605
4410015,604
4411129,604
4412244,604
4413358,605
4414472,605
4415586,605
4416701,605
4417815,605
4418929,604
4420044,605
4421158,606
4422272,606
4423386,606
4424501,606
4425615,606
4426729,606
4427844,606
4428958,605
4430072,605
4431186,605
4432301,605
4433415,605
4434529,605
4435644,605
4436758,604
4437872,604
4438986,604
4440101,604
4441215,604
4442329,604
4443444,603
4444558,604
4445672,604
4446786,604
4447901,604
4449015,603
4450129,602
4451244,603
4452358,603
4453472,603
4454586,603
4455701,603
4456815,603
4457929,603
4459044,603
4460158,602
4461272,603
4462386,602
4463501,602
4464615,602
4465729,602
4466844,602
4467958,603
4469072,602
4470186,602
4471301,603
4472415,602
4473529,602
4474644,603
4475758,601
4476872,602
4477986,602
4479101,603
4480215,602
4481329,602
4482444,602
4483558,603
4484672,603
4485786,603
4486901,601
4488015,602
4489129,602
4490244,602
4491358,603
4492472,603
4493586,603
4494701,603
4495815,604
4496929,604
4498044,604
4499158,604
4500272,604
4501386,605
4502501,604
4503615,604
4504729,605
4505844,604
4506958,605
4508072,605
4509186,605
4510301,605
4511415,605
4512529,605
4513644,606
4514758,606
4515872,606
4516986,606
4518101,606
4519215,606
4520329,606
4521444,606
4522558,606
4523672,606
4524786,606
4525901,606
4527015,606
4528129,606
4529244,607
4530358,607
4531472,606
4532586,606
4533701,607
4534815,608
4535929,607
4537044,607
4538158,607
4539272,608
4540386,608
4541501,607
4542615,608
4543729,608
4544844,608
4545958,608
4547072,608
4548186,608
4549301,607
4550415,607
4551529,607
4552644,607
4553758,607
4554872,607
4555986,607
4557101,607
4558215,607
4559329,607
4560444,607
4561558,606
4562672,607
4563786,607
4564901,608
4566015,607
4567129,607
4568244,607
4569358,607
4570472,607
4571586,607
4572701,607
4573815,607
4574929,607
4576044,608
4577158,607
4578272,607
4579386,608
4580501,607
4581615,608
4582729,608
4583844,608
4584958,608
4586072,608
4587186,608
4588301,609
4589415,609
4590529,608
4591644,609
4592758,609
4593872,609
4594986,609
4596101,609
4597215,608
4598329,608
4599444,608
4600558,608
4601672,609
4602786,609
4603901,609
4605015,609
4606129,610
4607244,610
4608358,610
4609472,609
4610586,610
4611701,610
4612815,610
4613929,610
4615044,610
4616158,611
4617272,611
4618386,611
4619501,611
4620615,611
4621729,610
4622844,610
4623958,611
4625072,611
4626186,610
4627301,610
4628415,609
4629529,610
4630644,609
4631758,610
4632872,610
4633986,608
4635101,610
4636215,607
4637329,609
4638444,609
4639558,608
4640672,608
4641786,607
4642901,607
4644015,607
4645129,607
4646244,607
4647358,607
4648472,607
4649586,605
4650701,605
4651815,606
4652929,606
4654044,605
4655158,605
4656272,605
4657386,605
4658501,605
4659615,605
4660729,605
4661844,605
4662958,605
4664072,605
4665186,604
4666301,604
4667415,604
4668529,604
4669644,603
4670758,603
4671872,603
4672986,603
4674101,603
4675215,600
4676329,602
4677444,603
4678558,602
4679672,602
4680786,602
4681901,602
4683015,601
4684129,602
4685244,602
4686358,601
4687472,601
4688586,601
4689701,601
4690815,601
4691929,601
4693044,601
4694158,601
4695272,601
4696386,600
4697501,601
4698615,601
4699729,601
4700844,601
4701958,601
4703072,600
4704186,601
4705301,603
4706415,602
4707529,603
4708644,602
4709758,603
4710872,603
4711986,603
4713101,602
4714215,603
4715329,603
4716444,603
4717558,602
4718672,602
4719786,603
4720901,603
4722015,602
4723129,602
4724244,602
4725358,602
4726472,602
4727586,604
4728701,603
4729815,603
4730929,603
4732044,603
4733158,603
4734272,603
4735386,603
4736501,603
4737615,603
4738729,603
4739844,603
4740958,604
4742072,603
4743186,603
4744301,604
4745415,604
4746529,604
4747644,604
4748758,604
4749872,604
4750986,603
4752101,603
4753215,603
4754329,603
4755444,603
4756558,604
4757672,603
4758786,603
4759901,604
4761015,603
4762129,603
4763244,603
4764358,603
4765472,603
4766586,603
4767701,603
4768815,603
4769929,602
4771044,603
4772158,603
4773272,602
4774386,603
4775501,604
4776615,602
4777729,603
4778844,603
4779958,603
4781072,603
4782186,603
4783301,602
4784415,602
4785529,602
4786644,602
4787758,603
4788872,602
4789986,601
4791101,601
4792215,601
4793329,599
4794444,601
4795558,601
4796672,602
4797786,601
4798901,602
4800015,602
4801129,603
4802244,602
4803358,603
4804472,603
4805586,603
4806701,604
4807815,603
4808929,604
4810044,603
4811158,604
4812272,604
4813386,604
4814501,605
4815615,604
4816729,603
4817844,604
4818958,604
4820072,604
4821186,605
4822301,605
4823415,606
4824529,604
4825644,604
4826758,603
4827872,604
4828986,604
4830101,604
4831215,605
4832329,605
4833444,604
4834558,604
4835672,604
4836786,604
4837901,604
4839015,604
4840129,604
4841244,604
4842358,605
4843472,605
4844586,605
4845701,605
4846815,605
4847929,606
4849044,606
4850158,605
4851272,605
4852386,605
4853501,604
4854615,605
4855729,604
4856844,604
4857958,603
4859072,603
4860186,604
4861301,604
4862415,604
4863529,604
4864644,604
4865758,604
4866872,604
4867986,604
4869101,604
4870215,604
4871329,604
4872444,604
4873558,603
4874672,603
4875786,603
4876901,603
4878015,604
4879129,603
4880244,603
4881358,603
4882472,603
4883586,604
4884701,603
4885815,604
4886929,603
4888044,602
4889158,602
4890272,602
4891386,602
4892501,603
4893615,604
4894729,604
4895844,604
4896958,604
4898072,604
4899186,605
4900301,605
4901415,603
4902529,604
4903644,605
4904758,605
4905872,604
4906986,605
4908101,604
4909215,604
4910329,604
4911444,604
4912558,604
4913672,604
4914786,603
4915901,604
4917015,604
4918129,603
4919244,603
4920358,603
4921472,604
4922586,604
4923701,603
4924815,603
4925929,602
4927044,601
4928158,601
4929272,603
4930386,603
4931501,602
4932615,602
4933729,602
4934844,602
4935958,602
4937072,602
4938186,602
4939301,601
4940415,602
4941529,602
4942644,602
4943758,603
4944872,602
4945986,602
4947101,602
4948215,602
4949329,602
4950444,602
4951558,603
4952672,602
4953786,603
4954901,603
4956015,603
4957129,602
4958244,603
4959358,603
4960472,602
4961586,603
4962701,603
4963815,603
4964929,603
4966044,603
4967158,603
4968272,603
4969386,603
4970501,604
4971615,603
4972729,604
4973844,604
4974958,604
4976072,604
4977186,603
4978301,602
4979415,603
4980529,603
4981644,603
4982758,603
4983872,602
4984986,603
4986101,604
4987215,602
4988329,603
4989444,602
4990558,602
4991672,603
4992786,603
4993901,602
4995015,601
4996129,603
4997244,602
4998358,603
4999472,603
5000586,603
5001701,603
5002815,603
5003929,603
5005044,604
5006158,603
5007272,603
5008386,602
5009501,603
5010615,602
5011729,603
5012844,604
5013958,604
5015072,603
5016186,603
5017301,603
5018415,603
5019529,603
5020644,604
5021758,603
5022872,604
5023986,604
5025101,604
5026215,604
5027329,604
5028444,604
5029558,604
5030672,604
5031786,603
5032901,603
5034015,604
5035129,604
5036244,604
5037358,605
5038472,604
5039586,603
5040701,604
5041815,604
5042929,604
5044044,604
5045158,605
5046272,604
5047386,603
5048501,602
5049615,605
5050729,604
5051844,604
5052958,603
5054072,603
5055186,604
5056301,603
5057415,604
5058529,603
5059644,603
5060758,604
5061872,604
5062986,604
5064101,605
5065215,604
5066329,604
5067444,604
5068558,604
5069672,604
5070786,604
5071901,605
5073015,604
5074129,604
5075244,604
5076358,604
5077472,605
5078586,605
5079701,603
5080815,604
5081929,604
5083044,604
5084158,604
5085272,603
5086386,604
5087501,603
5088615,603
5089729,603
5090844,602
5091958,603
5093072,603
5094186,602
5095301,602
5096415,602
5097529,602
5098644,602
5099758,602
5100872,602
5101986,602
5103101,601
5104215,602
5105329,601
5106444,601
5107558,602
5108672,602
5109786,602
5110901,602
5112015,602
5113129,602
5114244,602
5115358,601
5116472,602
5117586,601
5118701,601
5119815,601
5120929,601
5122044,602
5123158,601
5124272,599
5125386,602
5126501,602
5127615,602
5128729,601
5129844,602
5130958,601
5132072,602
5133186,600
5134301,602
5135415,602
5136529,602
5137644,601
5138758,601
5139872,601
5140986,601
5142101,601
5143215,601
5144329,600
5145444,602
5146558,601
5147672,601
5148786,600
5149901,601
5151015,601
5152129,601
5153244,600
5154358,600
5155472,600
5156586,600
5157701,600
5158815,601
5159929,599
5161044,600
5162158,600
5163272,600
5164386,601
5165501,601
5166615,601
5167729,601
5168844,601
5169958,601
5171072,601
5172186,601
5173301,601
5174415,601
5175529,601
5176644,601
5177758,602
5178872,599
5179986,601
5181101,601
5182215,598
5183329,600
5184444,600
5185558,601
5186672,601
5187786,601
5188901,601
5190015,601
5191129,602
5192244,601
5193358,601
5194472,601
5195586,601
5196701,601
5197815,600
5198929,602
5200044,601
5201158,601
5202272,601
5203386,601
5204501,601
5205615,601
5206729,601
5207844,601
5208958,601
5210072,601
5211186,602
5212301,602
5213415,602
5214529,601
5215644,601
5216758,603
5217872,602
5218986,602
5220101,602
5221215,602
5222329,602
5223444,602
5224558,602
5225672,602
5226786,603
5227901,604
5229015,603
5230129,604
5231244,603
5232358,602
5233472,603
5234586,603
5235701,603
5236815,603
5237929,602
5239044,603
5240158,603
5241272,601
5242386,603
5243501,603
5244615,603
5245729,603
5246844,603
5247958,603
5249072,603
5250186,603
5251301,602
5252415,603
5253529,602
5254644,603
5255758,602
5256872,603
5257986,603
5259101,603
5260215,603
5261329,603
5262444,603
5263558,603
5264672,603
5265786,604
5266901,604
5268015,604
5269129,604
5270244,604
5271358,603
5272472,604
5273586,604
5274701,605
5275815,604
5276929,604
5278044,603
5279158,603
5280272,604
5281386,604
5282501,603
5283615,604
5284729,604
5285844,603
5286958,603
5288072,603
5289186,603
5290301,603
5291415,603
5292529,603
5293644,603
5294758,604
5295872,602
5296986,602
5298101,603
5299215,603
5300329,603
5301444,604
5302558,603
5303672,603
5304786,603
5305901,603
5307015,603
5308129,602
5309244,602
5310358,603
5311472,602
5312586,602
5313701,602
5314815,603
5315929,603
5317044,602
5318158,603
5319272,603
5320386,603
5321501,603
5322615,603
5323729,603
5324844,604
5325958,604
5327072,603
5328186,603
5329301,603
5330415,603
5331529,603
5332644,603
5333758,603
5334872,602
5335986,603
5337101,605
5338215,603
5339329,603
5340444,603
5341558,602
5342672,603
5343786,602
5344901,602
5346015,604
5347129,603
5348244,605
5349358,603
5350472,603
5351586,600
5352701,602
5353815,603
5354929,602
5356044,602
5357158,603
5358272,602
5359386,602
5360501,602
5361615,602
5362729,602
5363844,601
5364958,595
5366072,601
5367186,601
5368301,601
5369415,602
5370529,601
5371644,600
5372758,601
5373872,601
5374986,600
5376101,601
5377215,602
5378329,601
5379444,601
5380558,602
5381672,601
5382786,602
5383901,602
5385015,601
5386129,601
5387244,603
5388358,601
5389472,601
5390586,601
5391701,599
5392815,601
5393929,600
5395044,600
5396158,601
5397272,601
5398386,602
5399501,601
5400615,602
5401729,602
5402844,602
5403958,600
5405072,600
5406186,601
5407301,601
5408415,601
5409529,601
5410644,602
5411758,602
5412872,602
5413986,602
5415101,602
5416215,602
5417329,601
5418444,603
5419558,602
5420672,603
5421786,603
5422901,602
5424015,602
5425129,602
5426244,602
5427358,602
5428472,604
5429586,602
5430701,602
5431815,602
5432929,602
5434044,601
5435158,602
5436272,602
5437386,602
5438501,602
5439615,602
5440729,601
5441844,601
5442958,601
5444072,601
5445186,601
5446301,601
5447415,601
5448529,601
5449644,601
5450758,601
5451872,601
5452986,601
5454101,601
5455215,602
5456329,601
5457444,601
5458558,601
5459672,601
5460786,601
5461901,602
5463015,602
5464129,602
5465244,603
5466358,602
5467472,602
5468586,602
5469701,602
5470815,602
5471929,602
5473044,603
5474158,603
5475272,603
5476386,601
5477501,603
5478615,602
5479729,602
5480844,602
5481958,603
5483072,603
5484186,603
5485301,603
5486415,603
5487529,604
5488644,604
5489758,603
5490872,603
5491986,603
5493101,605
5494215,604
5495329,602
5496444,603
5497558,603
5498672,603
5499786,603
5500901,604
5502015,602
5503129,602
5504244,603
5505358,603
5506472,602
5507586,603
5508701,603
5509815,602
5510929,603
5512044,603
5513158,604
5514272,602
5515386,600
5516501,602
5517615,602
5518729,603
5519844,603
5520958,601
5522072,605
5523186,603
5524301,603
5525415,604
5526529,603
5527644,604
5528758,604
5529872,604
5530986,603
5532101,604
5533215,603
5534329,604
5535444,603
5536558,604
5537672,604
5538786,603
5539901,604
5541015,604
5542129,604
5543244,604
5544358,605
5545472,604
5546586,603
5547701,604
5548815,604
5549929,604
5551044,604
5552158,604
5553272,604
5554386,604
5555501,604
5556615,603
5557729,603
5558844,603
5559958,603
5561072,603
5562186,603
5563301,604
5564415,603
5565529,603
5566644,604
5567758,603
5568872,604
5569986,603
5571101,603
5572215,603
5573329,603
5574444,603
5575558,602
5576672,602
5577786,603
5578901,602
5580015,602
5581129,602
5582244,602
5583358,602
5584472,603
5585586,603
5586701,602
5587815,603
5588929,602
5590044,603
5591158,603
5592272,602
5593386,602
5594501,601
5595615,603
5596729,602
5597844,602
5598958,602
5600072,602
5601186,603
5602301,604
5603415,603
5604529,603
5605644,603
5606758,603
5607872,603
5608986,603
5610101,603
5611215,603
5612329,601
5613444,603
5614558,603
5615672,603
5616786,603
5617901,603
5619015,603
5620129,603
5621244,603
5622358,603
5623472,603
5624586,604
5625701,603
5626815,603
5627929,604
5629044,602
5630158,602
5631272,603
5632386,603
5633501,602
5634615,602
5635729,602
5636844,602
5637958,601
5639072,602
5640186,602
5641301,600
5642415,601
5643529,600
5644644,601
5645758,602
5646872,601
5647986,601
5649101,601
5650215,601
5651329,601
5652444,601
5653558,600
5654672,600
5655786,600
5656901,599
5658015,601
5659129,601
5660244,599
5661358,600
5662472,600
5663586,600
5664701,600
5665815,600
5666929,601
5668044,600
5669158,600
5670272,599
5671386,599
5672501,601
5673615,600
5674729,600
5675844,600
5676958,600
5678072,601
5679186,601
5680301,602
5681415,600
5682529,597
5683644,599
5684758,600
5685872,602
5686986,601
5688101,600
5689215,600
5690329,600
5691444,600
5692558,599
5693672,600
5694786,600
5695901,596
5697015,601
5698129,600
5699244,601
5700358,601
5701472,600
5702586,600
5703701,598
5704815,600
5705929,600
5707044,600
5708158,600
5709272,601
5710386,600
5711501,601
5712615,600
5713729,601
5714844,600
5715958,600
5717072,601
5718186,601
5719301,601
5720415,601
5721529,600
5722644,601
5723758,600
5724872,600
5725986,601
5727101,600
5728215,601
5729329,601
5730444,601
5731558,601
5732672,601
5733786,600
5734901,600
5736015,601
5737129,600
5738244,600
5739358,599
5740472,601
5741586,600
5742701,600
5743815,600
5744929,600
5746044,600
5747158,600
5748272,600
5749386,600
5750501,601
5751615,599
5752729,598
5753844,600
5754958,600
5756072,600
5757186,601
5758301,600
5759415,599
5760529,599
5761644,600
5762758,600
5763872,600
5764986,600
5766101,600
5767215,600
5768329,600
5769444,600
5770558,600
5771672,600
5772786,600
5773901,600
5775015,600
5776129,600
5777244,600
5778358,600
5779472,600
5780586,600
5781701,600
5782815,601
5783929,601
5785044,601
5786158,601
5787272,602
5788386,601
5789501,600
5790615,601
5791729,601
5792844,600
5793958,600
5795072,602
5796186,601
5797301,601
5798415,602
5799529,602
5800644,601
5801758,600
5802872,601
5803986,601
5805101,601
5806215,601
5807329,602
5808444,603
5809558,601
5810672,599
5811786,602
5812901,602
5814015,602
5815129,602
5816244,601
5817358,602
5818472,601
5819586,601
5820701,600
5821815,601
5822929,601
5824044,601
5825158,600
5826272,601
5827386,601
5828501,601
5829615,600
5830729,600
5831844,601
5832958,601
5834072,601
5835186,601
5836301,601
5837415,601
5838529,601
5839644,601
5840758,601
5841872,600
5842986,601
5844101,601
5845215,602
5846329,601
5847444,601
5848558,601
5849672,601
5850786,601
5851901,601
5853015,601
5854129,601
5855244,601
5856358,601
5857472,601
5858586,603
5859701,602
5860815,601
5861929,602
5863044,602
5864158,601
5865272,602
5866386,602
5867501,602
5868615,602
5869729,601
5870844,602
5871958,602
5873072,602
5874186,601
5875301,602
5876415,602
5877529,602
5878644,602
5879758,602
5880872,602
5881986,602
5883101,602
5884215,602
5885329,602
5886444,600
5887558,601
5888672,601
5889786,601
5890901,601
5892015,602
5893129,600
5894244,602
5895358,602
5896472,602
5897586,602
5898701,602
5899815,603
5900929,602
5902044,602
5903158,604
5904272,604
5905386,603
5906501,602
5907615,602
5908729,601
5909844,602
5910958,602
5912072,602
5913186,602
5914301,603
5915415,603
5916529,603
5917644,601
5918758,602
5919872,602
5920986,601
5922101,603
5923215,603
5924329,602
5925444,602
5926558,601
5927672,602
5928786,602
5929901,602
5931015,601
5932129,604
5933244,602
5934358,602
5935472,602
5936586,602
5937701,602
5938815,603
5939929,602
5941044,602
5942158,602
5943272,604
5944386,602
5945501,603
5946615,603
5947729,603
5948844,603
5949958,603
5951072,603
5952186,603
5953301,604
5954415,603
5955529,602
5956644,603
5957758,603
5958872,603
5959986,602
5961101,603
5962215,603
5963329,601
5964444,603
5965558,603
5966672,603
5967786,602
5968901,602
5970015,603
5971129,603
5972244,603
5973358,603
5974472,601
5975586,603
5976701,603
5977815,603
5978929,603
5980044,604
5981158,602
5982272,605
5983386,603
5984501,603
5985615,603
5986729,603
5987844,602
5988958,604
5990072,602
5991186,602
5992301,602
5993415,603
5994529,602
5995644,602
5996758,602
5997872,601
5998986,603
6000101,602
6001215,602
6002329,602
6003444,601
6004558,601
6005672,601
6006786,602
6007901,602
6009015,602
6010129,602
6011244,600
6012358,602
6013472,601
6014586,602
6015701,602
6016815,601
6017929,601
6019044,602
6020158,600
6021272,601
6022386,601
6023501,600
6024615,600
6025729,601
6026844,602
6027958,600
6029072,600
6030186,600
6031301,600
6032415,600
6033529,600
6034644,601
6035758,601
6036872,601
6037986,599
6039101,600
6040215,601
6041329,601
6042444,601
6043558,601
6044672,601
6045786,601
6046901,600
6048015,601
6049129,601
6050244,601
6051358,601
6052472,601
6053586,602
6054701,600
6055815,600
6056929,601
6058044,601
6059158,601
6060272,601
6061386,601
6062501,601
6063615,602
6064729,602
6065844,600
6066958,601
6068072,602
6069186,601
6070301,602
6071415,602
6072529,601
6073644,600
6074758,601
6075872,601
6076986,601
6078101,602
6079215,602
6080329,601
6081444,602
6082558,600
6083672,602
6084786,601
6085901,602
6087015,601
6088129,602
6089244,602
6090358,601
6091472,601
6092586,602
6093701,601
6094815,602
6095929,602
6097044,602
6098158,602
6099272,602
6100386,602
6101501,602
6102615,601
6103729,602
6104844,601
6105958,602
6107072,602
6108186,601
6109301,601
6110415,601
6111529,602
6112644,602
6113758,602
6114872,602
6115986,601
6117101,601
6118215,601
6119329,602
6120444,601
6121558,601
6122672,601
6123786,601
6124901,602
6126015,601
6127129,601
6128244,602
6129358,602
6130472,602
6131586,602
6132701,600
6133815,602
6134929,601
6136044,602
6137158,602
6138272,602
6139386,600
6140501,604
6141615,600
6142729,602
6143844,602
6144958,602
6146072,601
6147186,601
6148301,602
6149415,601
6150529,602
6151644,600
6152758,601
6153872,602
6154986,602
6156101,602
6157215,602
6158329,602
6159444,600
6160558,602
6161672,602
6162786,601
6163901,602
6165015,603
6166129,602
6167244,602
6168358,602
6169472,602
6170586,602
6171701,602
6172815,601
6173929,602
6175044,602
6176158,601
6177272,601
6178386,602
6179501,602
6180615,602
6181729,602
6182844,603
6183958,602
6185072,602
6186186,604
6187301,601
6188415,601
6189529,604
6190644,602
6191758,602
6192872,603
6193986,601
6195101,602
6196215,601
6197329,602
6198444,602
6199558,602
6200672,601
6201786,602
6202901,602
6204015,602
6205129,601
6206244,600
6207358,601
6208472,601
6209586,601
6210701,601
6211815,601
6212929,602
6214044,601
6215158,601
6216272,603
6217386,602
6218501,602
6219615,600
6220729,602
6221844,601
6222958,601
6224072,602
6225186,601
6226301,600
6227415,602
6228529,602
6229644,600
6230758,601
6231872,601
6232986,601
6234101,602
6235215,601
6236329,601
6237444,601
6238558,601
6239672,601
6240786,602
6241901,602
6243015,601
6244129,601
6245244,601
6246358,602
6247472,602
6248586,602
6249701,602
6250815,602
6251929,601
6253044,601
6254158,601
6255272,601
6256386,601
6257501,603
6258615,601
6259729,601
6260844,601
6261958,601
6263072,601
6264186,601
6265301,601
6266415,601