0,0
1,34796
2,47400
3,54848
4,60356
5,64700
6,68488
7,71872
8,75208
9,78236
10,80908
11,83488
12,85800
13,87832
14,89904
15,91856
16,93696
17,95540
18,97272
19,98852
20,100424
21,102028
22,103552
23,105108
24,106636
25,108104
26,109488
27,110776
28,112140
29,113428
30,114640
31,115824
32,117016
33,118224
34,119424
35,120620
36,121808
37,122940
38,124108
39,125264
40,126408
41,127560
42,128680
43,129796
44,130904
45,132020
46,133124
47,134248
48,135324
49,136392
50,137488
51,138556
52,139628
53,140708
54,141780
55,142820
56,143884
57,144968
58,146048
59,147096
60,148144
61,149172
62,150296
63,151396
64,152476
65,153536
66,154628
67,155780
68,156880
69,157976
70,159088
71,160244
72,161400
73,162536
74,163696
75,164844
76,166024
77,167160
78,168316
79,169400
80,170512
81,171652
82,172788
83,173892
84,175016
85,176080
86,177204
87,178344
88,179460
89,180604
90,181740
91,182876
92,184024
93,185148
94,186272
95,187416
96,188528
97,189684
98,190836
99,191960
100,193116
101,194268
102,195420
103,196536
104,197676
105,198820
106,199960
107,201120
108,202280
109,203428
110,204596
111,205752
112,206916
113,208080
114,209244
115,210400
116,211592
117,212768
118,213936
119,215104
120,216228
121,217380
122,218572
123,219704
124,220876
125,221968
126,223080
127,224188
128,225328
129,226472
130,227596
131,228716
132,229840
133,230948
134,232100
135,233272
136,234408
137,235568
138,236720
139,237884
140,239044
141,240200
142,241364
143,242548
144,243712
145,244880
146,246096
147,247236
148,248488
149,249656
150,250896
151,252100
152,253336
153,254548
154,255788
155,257028
156,258280
157,259500
158,260812
159,262084
160,263332
161,264564
162,265792
163,267044
164,268296
165,269536
166,270772
167,272044
168,273316
169,274620
170,275908
171,277164
172,278448
173,279744
174,281072
175,282340
176,283628
177,284952
178,286280
179,287564
180,288848
181,290156
182,291548
183,292908
184,294228
185,295628
186,296972
187,298372
188,299788
189,301152
190,302556
191,304004
192,305412
193,306796
194,308232
195,309612
196,311028
197,312480
198,313860
199,315252
200,316656
201,318052
202,319456
203,320864
204,322292
205,323688
206,325164
207,326616
208,328016
209,329432
210,330900
211,332376
212,333836
213,335240
214,336620
215,338044
216,339492
217,340912
218,342340
219,343740
220,345236
221,346652
222,348080
223,349508
224,350972
225,352424
226,353864
227,355312
228,356776
229,358212
230,359712
231,361176
232,362632
233,364108
234,365572
235,367080
236,368600
237,370076
238,371556
239,373068
240,374540
241,376028
242,377604
243,379060
244,380652
245,382212
246,383784
247,385372
248,386880
249,388464
250,389996
251,391484
252,392964
253,394416
254,395984
255,397580
256,399036
257,400648
258,402208
259,403792
260,405404
261,406964
262,408520
263,410132
264,411760
265,413368
266,414984
267,416544
268,418176
269,419788
270,421432
271,423068
272,424772
273,426584
274,428444
275,430316
276,432220
277,434128
278,436132
279,438164
280,440228
281,442348
282,444528
283,446696
284,449016
285,451320
286,453604
287,456168
288,458696
289,461608
290,464568
291,467672
292,471164
293,474644
294,478368
295,482260
296,486688
297,492144
298,498456
299,505520
300,514240
301,525956
302,576356
