0,0
1,19208
2,30172
3,37912
4,44168
5,49464
6,53968
7,57916
8,61580
9,64948
10,67984
11,70728
12,73288
13,75760
14,78128
15,80308
16,82384
17,84404
18,86300
19,88100
20,89776
21,91436
22,93048
23,94704
24,96240
25,97700
26,99184
27,100620
28,102048
29,103420
30,104756
31,106132
32,107532
33,108872
34,110188
35,111492
36,112824
37,114128
38,115496
39,116720
40,117932
41,119208
42,120552
43,121876
44,123232
45,124596
46,125908
47,127236
48,128464
49,129704
50,130992
51,132264
52,133584
53,134864
54,136224
55,137600
56,139036
57,140488
58,142036
59,143508
60,144824
61,146176
62,147572
63,148920
64,150280
65,151696
66,153164
67,154516
68,155848
69,157124
70,158416
71,159768
72,161124
73,162428
74,163800
75,165200
76,166628
77,168024
78,169452
79,170848
80,172268
81,173788
82,175244
83,176660
84,178064
85,179468
86,180992
87,182392
88,183732
89,185132
90,186628
91,188100
92,189596
93,191012
94,192400
95,193896
96,195252
97,196600
98,198040
99,199452
100,200868
101,202240
102,203600
103,204988
104,206408
105,207852
106,209292
107,210820
108,212352
109,213856
110,215456
111,216856
112,218276
113,219708
114,221212
115,222576
116,223960
117,225348
118,226744
119,228204
120,229640
121,231056
122,232492
123,233940
124,235420
125,236920
126,238392
127,239864
128,241464
129,243112
130,244756
131,246484
132,248020
133,249472
134,251056
135,252516
136,253984
137,255496
138,257148
139,258748
140,260248
141,261664
142,263088
143,264588
144,266052
145,267472
146,268936
147,270396
148,271876
149,273348
150,274840
151,276364
152,277940
153,279520
154,281148
155,282872
156,284644
157,286412
158,288348
159,289960
160,291504
161,293056
162,294656
163,296244
164,297820
165,299360
166,300820
167,302380
168,303812
169,305224
170,306736
171,308256
172,309816
173,311336
174,312888
175,314536
176,316236
177,317936
178,319784
179,321772
180,323848
181,326080
182,328400
183,330332
184,332040
185,333704
186,335364
187,337068
188,338788
189,340440
190,342024
191,343644
192,345144
193,346640
194,348184
195,349700
196,351284
197,352852
198,354532
199,356292
200,357992
201,359876
202,361976
203,364312
204,366868
205,369272
206,372024
207,374432
208,376504
209,378564
210,380596
211,382488
212,384160
213,385724
214,387304
215,388952
216,390548
217,392076
218,393680
219,395304
220,397012
221,398680
222,400300
223,402000
224,403736
225,405488
226,407368
227,409332
228,411444
229,413820
230,416532
231,419360
232,422216
233,425312
234,428232
235,430948
236,433532
237,435836
238,437896
239,439684
240,441248
241,442764
242,444300
243,445844
244,447384
245,448868
246,450444
247,452072
248,453712
249,455372
250,457100
251,458908
252,460884
253,463012
254,465468
255,468084
256,470824
257,474104
258,478232
259,482632
260,487028
261,490552
262,493000
263,494940
264,496560
265,498180
266,499800
267,501372
268,502952
269,504532
270,506112
271,507696
272,509388
273,511200
274,513116
275,515360
276,517944
277,521020
278,524684
279,529148
280,534724
