1,0
2,20100
3,29828
4,36896
5,42532
6,47368
7,51560
8,55224
9,58424
10,61376
11,64088
12,66596
13,68944
14,71188
15,73272
16,75256
17,77112
18,79008
19,80816
20,82656
21,84396
22,86072
23,87704
24,89308
25,90800
26,92320
27,93824
28,95320
29,96824
30,98392
31,99932
32,101468
33,102980
34,104496
35,106016
36,107516
37,109024
38,110528
39,112056
40,113536
41,115016
42,116520
43,117992
44,119484
45,120968
46,122456
47,123944
48,125468
49,126988
50,128540
51,130060
52,131616
53,133148
54,134716
55,136280
56,137852
57,139432
58,141020
59,142588
60,144148
61,145712
62,147312
63,148916
64,150500
65,152080
66,153716
67,155304
68,156936
69,158560
70,160176
71,161816
72,163480
73,165132
74,166824
75,168492
76,170168
77,171816
78,173568
79,175288
80,176988
81,178700
82,180420
83,182136
84,183832
85,185544
86,187276
87,189008
88,190736
89,192452
90,194236
91,195968
92,197752
93,199524
94,201292
95,203080
96,204904
97,206716
98,208572
99,210396
100,212220
101,214040
102,215956
103,217836
104,219704
105,221568
106,223448
107,225348
108,227240
109,229136
110,231028
111,232876
112,234632
113,236332
114,238076
115,239748
116,241468
117,243180
118,244880
119,246588
120,248328
121,250044
122,251804
123,253524
124,255232
125,256948
126,258756
127,260524
128,262300
129,264104
130,265900
131,267684
132,269468
133,271248
134,273064
135,274888
136,276704
137,278516
138,280380
139,282188
140,284076
141,285936
142,287788
143,289672
144,291600
145,293516
146,295476
147,297400
148,299348
149,301300
150,303336
151,305336
152,307372
153,309356
154,311356
155,313348
156,315364
157,317388
158,319408
159,321444
160,323484
161,325496
162,327556
163,329536
164,331548
165,333520
166,335472
167,337420
168,339396
169,341352
170,343352
171,345308
172,347272
173,349192
174,351236
175,353240
176,355244
177,357204
178,359188
179,361192
180,363192
181,365184
182,367196
183,369232
184,371236
185,373236
186,375312
187,377332
188,379416
189,381492
190,383556
191,385648
192,387784
193,389924
194,392100
195,394252
196,396420
197,398572
198,400848
199,403072
200,405320
201,407576
202,409820
203,412104
204,414384
205,416660
206,418948
207,421256
208,423548
209,425820
210,428176
211,430464
212,432824
213,435160
214,437492
215,439848
216,442280
217,444640
218,447076
219,449492
220,451880
221,454264
222,456772
223,459192
224,461648
225,464076
226,466512
227,468956
228,471380
229,473804
230,476236
231,478660
232,481060
233,483460
234,485944
235,488328
236,490812
237,493272
238,495720
239,498208
240,500776
241,503296
242,505864
243,508464
244,511016
245,513624
246,516336
247,519012
248,521772
249,524480
250,527176
251,529912
252,532632
253,535344
254,538044
255,540760
256,543456
257,546140
258,548912
259,551592
260,554372
261,557116
262,559860
263,562620
264,565484
265,568304
266,571144
267,574028
268,576964
269,579992
270,583156
271,586272
272,589524
273,592780
274,596104
275,599424
276,602736
277,606104
278,609524
279,613056
280,616528
281,620044
282,623720
283,627296
284,631048
285,634812
286,638592
287,642508
288,646612
289,650608
290,654884
291,659172
292,663452
293,667900
294,672640
295,677376
296,682380
297,687568
298,693108
299,698812
300,705112
301,712460
302,725488
