0,0
1,15708
2,22668
3,27528
4,31176
5,34416
6,37396
7,39968
8,42200
9,44388
10,46384
11,48344
12,50128
13,51744
14,53356
15,54892
16,56388
17,57816
18,59204
19,60612
20,62048
21,63436
22,64820
23,66240
24,67600
25,69020
26,70332
27,71644
28,72936
29,74252
30,75568
31,76884
32,78200
33,79532
34,80836
35,82216
36,83572
37,84888
38,86200
39,87544
40,88896
41,90176
42,91468
43,92760
44,94088
45,95364
46,96640
47,97964
48,99256
49,100620
50,101932
51,103240
52,104556
53,105892
54,107224
55,108564
56,109908
57,111232
58,112532
59,113960
60,115340
61,116700
62,118068
63,119444
64,120864
65,122300
66,123688
67,125076
68,126504
69,127888
70,129300
71,130760
72,132196
73,133652
74,135088
75,136520
76,137920
77,139368
78,140816
79,142284
80,143744
81,145180
82,146556
83,148036
84,149460
85,150828
86,152284
87,153676
88,155124
89,156572
90,157992
91,159416
92,160896
93,162356
94,163816
95,165280
96,166704
97,168180
98,169636
99,171100
100,172540
101,174012
102,175488
103,176964
104,178404
105,179844
106,181272
107,182820
108,184364
109,185848
110,187348
111,188848
112,190400
113,191956
114,193488
115,195016
116,196556
117,198120
118,199672
119,201292
120,202864
121,204504
122,206096
123,207696
124,209252
125,210872
126,212508
127,214132
128,215788
129,217436
130,219040
131,220688
132,222280
133,223864
134,225416
135,226956
136,228492
137,229976
138,231408
139,232844
140,234336
141,235816
142,237312
143,238836
144,240312
145,241832
146,243416
147,244932
148,246496
149,248048
150,249676
151,251228
152,252808
153,254468
154,256068
155,257740
156,259416
157,261048
158,262728
159,264384
160,266136
161,267808
162,269532
163,271240
164,272956
165,274664
166,276416
167,278224
168,279932
169,281708
170,283500
171,285224
172,287008
173,288748
174,290428
175,292076
176,293724
177,295368
178,297020
179,298716
180,300380
181,302012
182,303672
183,305316
184,306996
185,308656
186,310284
187,311928
188,313624
189,315268
190,316912
191,318596
192,320260
193,322000
194,323704
195,325420
196,327100
197,328876
198,330640
199,332380
200,334124
201,335840
202,337556
203,339400
204,341232
205,343076
206,344932
207,346792
208,348760
209,350720
210,352664
211,354620
212,356632
213,358592
214,360608
215,362676
216,364744
217,366812
218,368888
219,371052
220,373172
221,375276
222,377400
223,379564
224,381744
225,383916
226,385980
227,388112
228,390244
229,392348
230,394472
231,396608
232,398768
233,400936
234,403096
235,405260
236,407484
237,409636
238,411768
239,413976
240,416144
241,418408
242,420644
243,422888
244,425104
245,427392
246,429764
247,432056
248,434364
249,436748
250,439092
251,441508
252,443904
253,446240
254,448660
255,451084
256,453604
257,456084
258,458508
259,460980
260,463544
261,466088
262,468652
263,471280
264,473856
265,476516
266,479128
267,481740
268,484308
269,487064
270,489788
271,492684
272,495688
273,498616
274,501760
275,505156
276,508708
277,512288
278,516160
279,520152
280,524072
281,528220
282,532288
283,536372
284,540900
285,545340
286,549644
287,554416
288,559040
289,564004
290,569224
291,574648
292,580268
293,586928
294,595108
295,605660
296,619252
297,637116
298,702776
