0,0
1,16584
2,24728
3,30556
4,35016
5,38768
6,42004
7,45056
8,47720
9,50080
10,52348
11,54392
12,56344
13,58252
14,60044
15,61732
16,63412
17,65088
18,66676
19,68176
20,69680
21,71176
22,72664
23,74140
24,75628
25,77068
26,78456
27,79848
28,81104
29,82356
30,83552
31,84808
32,86060
33,87312
34,88572
35,89820
36,91036
37,92304
38,93556
39,94816
40,96092
41,97320
42,98540
43,99760
44,100916
45,102072
46,103260
47,104452
48,105644
49,106828
50,107948
51,109124
52,110348
53,111552
54,112720
55,113900
56,115088
57,116268
58,117488
59,118716
60,119936
61,121192
62,122416
63,123620
64,124868
65,126116
66,127372
67,128668
68,129940
69,131192
70,132476
71,133716
72,134984
73,136280
74,137580
75,138916
76,140228
77,141516
78,142784
79,144124
80,145480
81,146804
82,148124
83,149440
84,150736
85,152148
86,153524
87,154868
88,156200
89,157564
90,158952
91,160252
92,161520
93,162828
94,164152
95,165428
96,166700
97,168020
98,169304
99,170592
100,171856
101,173160
102,174428
103,175728
104,177012
105,178300
106,179592
107,180872
108,182128
109,183504
110,184812
111,186088
112,187420
113,188752
114,190064
115,191392
116,192736
117,194084
118,195464
119,196796
120,198116
121,199504
122,200860
123,202272
124,203620
125,204984
126,206316
127,207696
128,209076
129,210456
130,211824
131,213180
132,214504
133,215892
134,217264
135,218648
136,220040
137,221408
138,222848
139,224260
140,225660
141,227044
142,228452
143,229884
144,231316
145,232760
146,234080
147,235516
148,236860
149,238232
150,239576
151,240900
152,242224
153,243552
154,244900
155,246252
156,247600
157,248972
158,250352
159,251700
160,253056
161,254420
162,255816
163,257196
164,258552
165,259908
166,261308
167,262672
168,264056
169,265492
170,266824
171,268288
172,269756
173,271192
174,272656
175,274160
176,275700
177,277168
178,278720
179,280224
180,281732
181,283332
182,284880
183,286420
184,287948
185,289456
186,290972
187,292516
188,294028
189,295528
190,297072
191,298624
192,300180
193,301748
194,303272
195,304892
196,306428
197,308020
198,309596
199,311188
200,312780
201,314356
202,315932
203,317516
204,319104
205,320768
206,322376
207,323992
208,325632
209,327264
210,328900
211,330584
212,332228
213,333864
214,335548
215,337172
216,338820
217,340548
218,342200
219,343964
220,345636
221,347368
222,349048
223,350800
224,352552
225,354252
226,355916
227,357580
228,359188
229,360948
230,362644
231,364280
232,365916
233,367532
234,369168
235,370840
236,372484
237,374132
238,375804
239,377432
240,379052
241,380740
242,382348
243,384104
244,385788
245,387524
246,389228
247,390992
248,392760
249,394512
250,396268
251,398008
252,399696
253,401544
254,403324
255,405044
256,406812
257,408580
258,410352
259,412156
260,413944
261,415688
262,417480
263,419208
264,421004
265,422896
266,424640
267,426488
268,428368
269,430240
270,432140
271,434144
272,436204
273,438264
274,440400
275,442556
276,444692
277,447044
278,449324
279,451792
280,454300
281,456916
282,459720
283,462884
284,466260
285,469932
286,474084
287,478252
288,482264
289,486996
290,491372
291,496600
292,501760
293,507700
294,513540
295,520780
296,530220
297,542812
298,564792
