#start
0.0000,-0.0002,0.0003,-0.0005
0.0027,0.1556,0.0007,-0.0005
0.0054,0.6660,0.0025,-0.0004
0.0081,1.4964,0.0065,-0.0004
0.0107,2.6334,0.0135,-0.0004
0.0134,4.0404,0.0242,-0.0003
0.0160,5.6739,0.0392,-0.0002
0.0187,7.5033,0.0592,-0.0001
0.0213,9.4617,0.0843,0.0002
0.0240,11.4836,0.1146,0.0005
0.0267,13.6047,0.1518,0.0009
0.0294,15.6682,0.1943,0.0014
0.0322,17.6406,0.2424,0.0021
0.0349,19.4595,0.2955,0.0029
0.0376,21.0645,0.3531,0.0038
0.0403,22.4043,0.4141,0.0050
0.0431,23.4428,0.4779,0.0063
0.0458,24.1519,0.5437,0.0077
0.0485,24.5093,0.6107,0.0094
0.0512,24.5009,0.6774,0.0113
0.0540,24.1278,0.7432,0.0133
0.0567,23.3944,0.8074,0.0155
0.0595,22.3246,0.8686,0.0179
0.0622,20.9441,0.9261,0.0204
0.0649,19.3009,0.9790,0.0231
0.0677,17.4451,1.0267,0.0259
0.0704,15.4169,1.0690,0.0288
0.0731,13.2929,1.1053,0.0319
0.0759,11.1009,1.1360,0.0350
0.0786,8.9521,1.1605,0.0382
0.0813,6.9456,1.1789,0.0413
0.0840,5.0677,1.1924,0.0445
0.0866,3.3836,1.2014,0.0477
0.0893,1.9184,1.2065,0.0509
0.0919,0.7384,1.2085,0.0541
0.0946,-0.1388,1.2081,0.0573
0.0973,-0.6985,1.2062,0.0606
0.1000,-0.9000,1.2038,0.0638
0.1025,-0.9000,1.2015,0.0669
0.1051,-0.9000,1.1992,0.0699
0.1076,-0.9000,1.1969,0.0730
0.1102,-0.9000,1.1946,0.0760
0.1128,-0.9000,1.1923,0.0791
0.1153,-0.9000,1.1900,0.0821
0.1179,-0.9000,1.1877,0.0851
0.1204,-0.9000,1.1854,0.0882
0.1230,-0.9000,1.1831,0.0912
0.1255,-0.9000,1.1808,0.0942
0.1281,-0.9000,1.1785,0.0972
0.1306,-0.9000,1.1762,0.1002
0.1332,-0.9000,1.1739,0.1032
0.1357,-0.9000,1.1716,0.1062
0.1383,-0.9000,1.1693,0.1092
0.1408,-0.9000,1.1670,0.1122
0.1434,-0.9000,1.1648,0.1151
0.1459,-0.9000,1.1624,0.1181
0.1485,-0.9000,1.1602,0.1211
0.1510,-0.9000,1.1578,0.1240
0.1536,-0.9000,1.1556,0.1270
0.1561,-0.9000,1.1533,0.1299
0.1587,-0.9000,1.1510,0.1329
0.1613,-0.9000,1.1487,0.1358
0.1638,-0.9000,1.1464,0.1387
0.1664,-0.9000,1.1441,0.1416
0.1689,-0.9000,1.1418,0.1446
0.1715,-0.9000,1.1395,0.1475
0.1740,-0.9000,1.1372,0.1504
0.1766,-0.9000,1.1349,0.1533
0.1791,-0.9000,1.1326,0.1562
0.1817,-0.9000,1.1303,0.1591
0.1842,-0.9000,1.1280,0.1619
0.1868,-0.9000,1.1257,0.1648
0.1893,-0.9000,1.1234,0.1677
0.1919,-0.9000,1.1211,0.1705
0.1944,-0.9000,1.1188,0.1734
0.1970,-0.9000,1.1165,0.1762
0.1995,-0.9000,1.1142,0.1791
0.2021,-0.9000,1.1119,0.1819
0.2046,-0.9000,1.1096,0.1847
0.2072,-0.9000,1.1073,0.1876
0.2097,-0.9000,1.1050,0.1904
0.2123,-0.9000,1.1027,0.1932
0.2148,-0.9000,1.1004,0.1960
0.2174,-0.9000,1.0982,0.1988
0.2199,-0.9000,1.0959,0.2016
0.2225,-0.9000,1.0936,0.2044
0.2250,-0.9000,1.0913,0.2071
0.2276,-0.9000,1.0890,0.2099
0.2301,-0.9000,1.0867,0.2127
0.2327,-0.9000,1.0844,0.2155
0.2352,-0.9000,1.0821,0.2182
0.2378,-0.9000,1.0798,0.2210
0.2403,-0.9000,1.0775,0.2237
0.2429,-0.9000,1.0752,0.2265
0.2454,-0.9000,1.0729,0.2292
0.2480,-0.9000,1.0706,0.2319
0.2505,-0.9000,1.0683,0.2346
0.2531,-0.9000,1.0660,0.2374
0.2556,-0.9000,1.0637,0.2401
0.2582,-0.9000,1.0614,0.2428
0.2607,-0.9000,1.0591,0.2455
0.2633,-0.9000,1.0568,0.2482
0.2658,-0.9000,1.0546,0.2509
0.2684,-0.9000,1.0522,0.2536
0.2709,-0.9000,1.0499,0.2562
0.2735,-0.9000,1.0477,0.2589
0.2760,-0.9000,1.0454,0.2616
0.2786,-0.9000,1.0431,0.2642
0.2811,-0.9000,1.0408,0.2669
0.2837,-0.9000,1.0385,0.2695
0.2862,-0.9000,1.0362,0.2722
0.2888,-0.9000,1.0339,0.2748
0.2913,-0.9000,1.0316,0.2775
0.2939,-0.9000,1.0293,0.2801
0.2964,-0.9000,1.0270,0.2827
0.2990,-0.9000,1.0247,0.2853
0.3015,-0.9000,1.0224,0.2879
0.3041,-0.9000,1.0201,0.2905
0.3066,-0.9000,1.0178,0.2931
0.3092,-0.9000,1.0155,0.2957
0.3117,-0.9000,1.0132,0.2983
0.3143,-0.9000,1.0109,0.3009
0.3168,-0.9000,1.0086,0.3034
0.3194,-0.9000,1.0063,0.3060
0.3219,-0.9000,1.0041,0.3086
0.3245,-0.9000,1.0017,0.3111
0.3270,-0.9000,0.9994,0.3137
0.3296,-0.9000,0.9972,0.3162
0.3321,-0.9000,0.9949,0.3188
0.3347,-0.9000,0.9926,0.3213
0.3372,-0.9000,0.9903,0.3238
0.3398,-0.9000,0.9880,0.3263
0.3423,-0.9000,0.9857,0.3288
0.3449,-0.9000,0.9834,0.3314
0.3474,-0.9000,0.9811,0.3339
0.3500,-0.9000,0.9788,0.3363
0.3525,-0.9000,0.9765,0.3388
0.3551,-0.9000,0.9742,0.3413
0.3576,-0.9000,0.9719,0.3438
0.3602,-0.9000,0.9696,0.3463
0.3627,-0.9000,0.9673,0.3487
0.3653,-0.9000,0.9650,0.3512
0.3678,-0.9000,0.9627,0.3537
0.3704,-0.9000,0.9604,0.3561
0.3729,-0.9000,0.9581,0.3585
0.3755,-0.9000,0.9559,0.3610
0.3780,-0.9000,0.9535,0.3634
0.3806,-0.9000,0.9513,0.3658
0.3831,-0.9000,0.9490,0.3683
0.3857,-0.9000,0.9467,0.3707
0.3882,-0.9000,0.9444,0.3731
0.3908,-0.9000,0.9421,0.3755
0.3933,-0.9000,0.9398,0.3779
0.3959,-0.9000,0.9375,0.3803
0.3984,-0.9000,0.9352,0.3826
0.4010,-0.9000,0.9329,0.3850
0.4035,-0.9000,0.9306,0.3874
0.4061,-0.9000,0.9283,0.3898
0.4086,-0.9000,0.9260,0.3921
0.4112,-0.9000,0.9237,0.3945
0.4137,-0.9000,0.9214,0.3968
0.4163,-0.9000,0.9191,0.3992
0.4188,-0.9000,0.9168,0.4015
0.4214,-0.9000,0.9145,0.4039
0.4239,-0.9000,0.9122,0.4062
0.4265,-0.9000,0.9100,0.4085
0.4290,-0.9000,0.9077,0.4108
0.4316,-0.9000,0.9054,0.4131
0.4341,-0.9000,0.9031,0.4154
0.4367,-0.9000,0.9008,0.4177
0.4392,-0.9000,0.8985,0.4200
0.4418,-0.9000,0.8962,0.4223
0.4443,-0.9000,0.8939,0.4246
0.4469,-0.9000,0.8916,0.4269
0.4494,-0.9000,0.8893,0.4291
0.4520,-0.9000,0.8870,0.4314
0.4545,-0.9000,0.8847,0.4336
0.4571,-0.9000,0.8824,0.4359
0.4596,-0.9000,0.8801,0.4381
0.4622,-0.9000,0.8778,0.4404
0.4647,-0.9000,0.8755,0.4426
0.4673,-0.9000,0.8732,0.4448
0.4698,-0.9000,0.8709,0.4471
0.4724,-0.9000,0.8686,0.4493
0.4749,-0.9000,0.8663,0.4515
0.4775,-0.9000,0.8640,0.4537
0.4800,-0.9000,0.8618,0.4559
0.4826,-0.9000,0.8595,0.4581
0.4851,-0.9000,0.8572,0.4603
0.4877,-0.9000,0.8549,0.4624
0.4902,-0.9000,0.8526,0.4646
0.4928,-0.9000,0.8503,0.4668
0.4953,-0.9000,0.8480,0.4689
0.4979,-0.9000,0.8457,0.4711
0.5004,-0.9000,0.8434,0.4732
0.5030,-0.9000,0.8411,0.4754
0.5055,-0.9000,0.8388,0.4775
0.5081,-0.9000,0.8365,0.4797
0.5106,-0.9000,0.8342,0.4818
0.5132,-0.9000,0.8319,0.4839
0.5157,-0.9000,0.8296,0.4860
0.5183,-0.9000,0.8273,0.4881
0.5208,-0.9000,0.8250,0.4902
0.5234,-0.9000,0.8228,0.4923
0.5259,-0.9000,0.8205,0.4944
0.5285,-0.9000,0.8181,0.4965
0.5310,-0.9000,0.8159,0.4986
0.5336,-0.9000,0.8136,0.5007
0.5361,-0.9000,0.8113,0.5027
0.5387,-0.9000,0.8090,0.5048
0.5412,-0.9000,0.8067,0.5068
0.5438,-0.9000,0.8044,0.5089
0.5463,-0.9000,0.8021,0.5109
0.5489,-0.9000,0.7998,0.5130
0.5514,-0.9000,0.7975,0.5150
0.5540,-0.9000,0.7952,0.5170
0.5565,-0.9000,0.7929,0.5191
0.5591,-0.9000,0.7906,0.5211
0.5616,-0.9000,0.7883,0.5231
0.5642,-0.9000,0.7860,0.5251
0.5667,-0.9000,0.7837,0.5271
0.5693,-0.9000,0.7814,0.5291
0.5718,-0.9000,0.7791,0.5311
0.5744,-0.9000,0.7768,0.5331
0.5769,-0.9000,0.7745,0.5350
0.5795,-0.9000,0.7723,0.5370
0.5820,-0.9000,0.7699,0.5390
0.5846,-0.9000,0.7677,0.5409
0.5871,-0.9000,0.7654,0.5429
0.5897,-0.9000,0.7631,0.5448
0.5922,-0.9000,0.7608,0.5468
0.5948,-0.9000,0.7585,0.5487
0.5973,-0.9000,0.7562,0.5506
0.5999,-0.9000,0.7539,0.5526
0.6024,-0.9000,0.7516,0.5545
0.6050,-0.9000,0.7493,0.5564
0.6075,-0.9000,0.7470,0.5583
0.6101,-0.9000,0.7447,0.5602
0.6126,-0.9000,0.7424,0.5621
0.6152,-0.9000,0.7401,0.5640
0.6177,-0.9000,0.7378,0.5658
0.6203,-0.9000,0.7355,0.5677
0.6228,-0.9000,0.7332,0.5696
0.6254,-0.9000,0.7309,0.5715
0.6279,-0.9000,0.7286,0.5733
0.6305,-0.9000,0.7264,0.5752
0.6330,-0.9000,0.7240,0.5770
0.6356,-0.9000,0.7218,0.5788
0.6381,-0.9000,0.7195,0.5807
0.6407,-0.9000,0.7172,0.5825
0.6432,-0.9000,0.7149,0.5843
0.6458,-0.9000,0.7126,0.5862
0.6484,-0.9000,0.7103,0.5880
0.6509,-0.9000,0.7080,0.5898
0.6534,-0.9000,0.7057,0.5916
0.6560,-0.9000,0.7034,0.5934
0.6585,-0.9000,0.7011,0.5951
0.6611,-0.9000,0.6988,0.5969
0.6636,-0.9000,0.6965,0.5987
0.6662,-0.9000,0.6942,0.6005
0.6687,-0.9000,0.6919,0.6022
0.6713,-0.9000,0.6896,0.6040
0.6738,-0.9000,0.6873,0.6058
0.6764,-0.9000,0.6850,0.6075
0.6789,-0.9000,0.6827,0.6092
0.6815,-0.9000,0.6805,0.6110
0.6840,-0.9000,0.6782,0.6127
0.6866,-0.9000,0.6759,0.6144
0.6892,-0.9000,0.6736,0.6162
0.6917,-0.9000,0.6713,0.6179
0.6943,-0.9000,0.6690,0.6196
0.6968,-0.9000,0.6667,0.6213
0.6994,-0.9000,0.6644,0.6230
0.7019,-0.9000,0.6621,0.6247
0.7045,-0.9000,0.6598,0.6263
0.7070,-0.9000,0.6575,0.6280
0.7095,-0.9000,0.6552,0.6297
0.7121,-0.9000,0.6529,0.6313
0.7146,-0.9000,0.6506,0.6330
0.7172,-0.9000,0.6483,0.6347
0.7198,-0.9000,0.6460,0.6363
0.7223,-0.9000,0.6437,0.6380
0.7249,-0.9000,0.6414,0.6396
0.7274,-0.9000,0.6391,0.6412
0.7300,-0.9000,0.6368,0.6429
0.7325,-0.9000,0.6345,0.6445
0.7350,-0.9000,0.6322,0.6461
0.7376,-0.9000,0.6299,0.6477
0.7401,-0.9000,0.6277,0.6493
0.7427,-0.9000,0.6254,0.6509
0.7453,-0.9000,0.6231,0.6525
0.7478,-0.9000,0.6208,0.6541
0.7504,-0.9000,0.6185,0.6556
0.7529,-0.9000,0.6162,0.6572
0.7555,-0.9000,0.6139,0.6588
0.7580,-0.9000,0.6116,0.6603
0.7605,-0.9000,0.6093,0.6619
0.7631,-0.9000,0.6070,0.6634
0.7656,-0.9000,0.6047,0.6650
0.7682,-0.9000,0.6024,0.6665
0.7707,-0.9000,0.6001,0.6680
0.7733,-0.9000,0.5978,0.6695
0.7758,-0.9000,0.5955,0.6711
0.7784,-0.9000,0.5932,0.6726
0.7809,-0.9000,0.5909,0.6741
0.7835,-0.9000,0.5886,0.6756
0.7860,-0.9000,0.5863,0.6771
0.7886,-0.9000,0.5840,0.6786
0.7911,-0.9000,0.5818,0.6801
0.7937,-0.9000,0.5795,0.6815
0.7962,-0.9000,0.5772,0.6830
0.7988,-0.9000,0.5749,0.6845
0.8014,-0.9000,0.5726,0.6859
0.8039,-0.9000,0.5703,0.6874
0.8064,-0.9000,0.5680,0.6888
0.8090,-0.9000,0.5657,0.6903
0.8115,-0.9000,0.5634,0.6917
0.8141,-0.9000,0.5611,0.6932
0.8167,-0.9000,0.5588,0.6946
0.8192,-0.9000,0.5565,0.6960
0.8218,-0.9000,0.5542,0.6974
0.8243,-0.9000,0.5519,0.6988
0.8269,-0.9000,0.5496,0.7002
0.8294,-0.9000,0.5473,0.7016
0.8319,-0.9000,0.5450,0.7030
0.8345,-0.9000,0.5427,0.7044
0.8370,-0.9000,0.5404,0.7058
0.8396,-0.9000,0.5382,0.7071
0.8421,-0.9000,0.5359,0.7085
0.8447,-0.9000,0.5336,0.7099
0.8472,-0.9000,0.5313,0.7112
0.8498,-0.9000,0.5290,0.7126
0.8524,-0.9000,0.5267,0.7139
0.8549,-0.9000,0.5244,0.7153
0.8575,-0.9000,0.5221,0.7166
0.8600,-0.9000,0.5198,0.7179
0.8625,-0.9000,0.5175,0.7192
0.8651,-0.9000,0.5152,0.7205
0.8677,-0.9000,0.5129,0.7218
0.8702,-0.9000,0.5106,0.7232
0.8728,-0.9000,0.5083,0.7244
0.8753,-0.9000,0.5060,0.7257
0.8778,-0.9000,0.5037,0.7270
0.8804,-0.9000,0.5014,0.7283
0.8829,-0.9000,0.4991,0.7296
0.8855,-0.9000,0.4968,0.7308
0.8880,-0.9000,0.4945,0.7321
0.8906,-0.9000,0.4922,0.7334
0.8931,-0.9000,0.4900,0.7346
0.8957,-0.9000,0.4877,0.7358
0.8982,-0.9000,0.4854,0.7371
0.9008,-0.9000,0.4831,0.7383
0.9033,-0.9000,0.4808,0.7395
0.9059,-0.9000,0.4785,0.7408
0.9084,-0.9000,0.4762,0.7420
0.9110,-0.9000,0.4739,0.7432
0.9135,-0.9000,0.4716,0.7444
0.9161,-0.9000,0.4693,0.7456
0.9187,-0.9000,0.4670,0.7468
0.9212,-0.9000,0.4647,0.7480
0.9237,-0.9000,0.4624,0.7491
0.9263,-0.9000,0.4601,0.7503
0.9288,-0.9000,0.4578,0.7515
0.9314,-0.9000,0.4555,0.7526
0.9339,-0.9000,0.4532,0.7538
0.9365,-0.9000,0.4509,0.7549
0.9390,-0.9000,0.4486,0.7561
0.9416,-0.9000,0.4464,0.7572
0.9442,-0.9000,0.4441,0.7584
0.9467,-0.9000,0.4418,0.7595
0.9492,-0.9000,0.4395,0.7606
0.9518,-0.9000,0.4372,0.7617
0.9544,-0.9000,0.4349,0.7628
0.9569,-0.9000,0.4326,0.7639
0.9595,-0.9000,0.4303,0.7650
0.9620,-0.9000,0.4280,0.7661
0.9645,-0.9000,0.4257,0.7672
0.9671,-0.9000,0.4234,0.7683
0.9697,-0.9000,0.4211,0.7694
0.9722,-0.9000,0.4188,0.7704
0.9747,-0.9000,0.4165,0.7715
0.9773,-0.9000,0.4142,0.7726
0.9799,-0.9000,0.4119,0.7736
0.9824,-0.9000,0.4096,0.7746
0.9850,-0.9000,0.4073,0.7757
0.9875,-0.9000,0.4050,0.7767
0.9900,-0.9000,0.4028,0.7777
0.9926,-0.9000,0.4005,0.7788
0.9951,-0.9000,0.3982,0.7798
0.9977,-0.9000,0.3959,0.7808
1.0002,-0.9000,0.3936,0.7818
1.0028,-0.9000,0.3913,0.7828
1.0054,-0.9000,0.3890,0.7838
1.0079,-0.9000,0.3867,0.7848
1.0104,-0.9000,0.3844,0.7857
1.0130,-0.9000,0.3821,0.7867
1.0155,-0.9000,0.3798,0.7877
1.0181,-0.9000,0.3775,0.7887
1.0207,-0.9000,0.3752,0.7896
1.0232,-0.9000,0.3729,0.7906
#stopped in 400 loops
