# time,position
4.701612903225806384e-01,6.750000000000000444e-01
4.760887096774193417e-01,6.850000000000000533e-01
4.814112903225806206e-01,6.949999999999999512e-01
4.869758064516128693e-01,7.049999999999999600e-01
